#Output values file generated by Xhydro
2
ReportTime
point# 1
1	-0.182302	
2	-0.138302	
3	-0.113894	
4	-0.161701	
5	-0.107926	
6	-0.105517	
7	-0.0903655	
8	-0.0820638	
9	-0.0785978	
10	-0.0724407	
11	-0.0668957	
12	-0.0505429	
13	-0.0448459	
14	-0.0449558	
15	-0.0453969	
16	-0.0450408	
17	-0.0479298	
18	-0.04663	
19	-0.0468126	
20	-0.0526879	
21	-0.0615138	
22	-0.0724169	
23	-0.100857	
24	-0.148029	
25	-0.148717	
26	-0.160304	
27	-0.123874	
28	-0.128767	
29	-0.157273	
30	-0.158309	
31	-0.111281	
32	-0.0882614	
33	-0.0849217	
34	-0.0841373	
35	-0.0778436	
36	-0.0551203	
37	-0.0510068	
38	-0.051987	
39	-0.0506128	
40	-0.0518111	
41	-0.0497458	
42	-0.0503924	
43	-0.0499982	
44	-0.0604225	
45	-0.0727666	
46	-0.0805002	
47	-0.0881077	
48	-0.095028	
49	-0.107772	
50	-0.126421	
51	-0.118618	
52	-0.102076	
53	-0.101656	
54	-0.0989754	
55	-0.0909256	
56	-0.0825907	
57	-0.0812572	
58	-0.0810912	
59	-0.0755993	
60	-0.0581189	
61	-0.0483409	
62	-0.0464944	
63	-0.0466466	
64	-0.0467932	
65	-0.0474939	
66	-0.0482655	
67	-0.0494927	
68	-0.0604236	
69	-0.0749864	
70	-0.101594	
71	-0.168263	
72	-0.163825	
73	-0.182333	
74	-0.196821	
75	-0.245032	
76	-0.149681	
77	-0.143472	
78	-0.130865	
79	-0.0996172	
80	-0.0858868	
81	-0.0877103	
82	-0.0881236	
83	-0.0815511	
84	-0.049568	
85	-0.0448409	
86	-0.0432263	
87	-0.0434369	
88	-0.0439656	
89	-0.0467324	
90	-0.048104	
91	-0.0472297	
92	-0.0630235	
93	-0.0724589	
94	-0.0830453	
95	-0.0987503	
96	-0.113675	
97	-0.158461	
98	-0.264671	
99	-0.25602	
100	-0.202065	
101	-0.191033	
102	-0.154231	
103	-0.102904	
104	-0.094141	
105	-0.0900844	
106	-0.0882162	
107	-0.0837066	
108	-0.0635944	
109	-0.0540829	
110	-0.0515389	
111	-0.0505339	
112	-0.049488	
113	-0.0501585	
114	-0.0498723	
115	-0.0515191	
116	-0.0663303	
117	-0.076671	
118	-0.0803433	
119	-0.085297	
120	-0.0965975	
121	-0.153358	
122	-0.201334	
123	-0.200173	
124	-0.177838	
125	-0.144607	
126	-0.105815	
127	-0.0905237	
128	-0.0849415	
129	-0.0830294	
130	-0.0830457	
131	-0.078256	
132	-0.0612968	
133	-0.0538156	
134	-0.0513674	
135	-0.0524614	
136	-0.0505736	
137	-0.0509021	
138	-0.0509893	
139	-0.0520021	
140	-0.0594188	
141	-0.0700302	
142	-0.0835995	
143	-0.0953022	
144	-0.0958514	
145	-0.0912876	
146	-0.0959645	
147	-0.107315	
148	-0.127619	
149	-0.112283	
150	-0.143345	
151	-0.104486	
152	-0.0947683	
153	-0.0935844	
154	-0.0930466	
155	-0.0858364	
156	-0.0629097	
157	-0.0574614	
158	-0.0573514	
159	-0.0589609	
160	-0.0596795	
161	-0.0606379	
162	-0.0608901	
163	-0.0603823	
164	-0.0674948	
165	-0.0755088	
166	-0.112273	
167	-0.176315	
168	-0.205343	
169	-0.24464	
170	-0.17162	
171	-0.178985	
172	-0.251605	
173	-0.211677	
174	-0.154016	
175	-0.10768	
176	-0.0841641	
177	-0.0783073	
178	-0.0783993	
179	-0.0737436	
180	-0.0594676	
181	-0.0541025	
182	-0.0553585	
183	-0.056447	
184	-0.0574881	
185	-0.056856	
186	-0.056991	
187	-0.0570436	
188	-0.061396	
189	-0.0700412	
190	-0.0957433	
191	-0.164017	
192	-0.17973	
193	-0.194948	
194	-0.164015	
195	-0.139694	
196	-0.134594	
197	-0.126888	
198	-0.109934	
199	-0.102768	
200	-0.0974151	
201	-0.0941021	
202	-0.0913503	
203	-0.0860862	
204	-0.0660477	
205	-0.0581298	
206	-0.0558099	
207	-0.0557054	
208	-0.0558234	
209	-0.0555694	
210	-0.0553891	
211	-0.0557211	
212	-0.0653069	
213	-0.0775698	
214	-0.0875446	
215	-0.0977039	
216	-0.110797	
217	-0.112319	
218	-0.110145	
219	-0.12748	
220	-0.132566	
221	-0.112408	
222	-0.10986	
223	-0.0984478	
224	-0.0935535	
225	-0.0919509	
226	-0.0900002	
227	-0.0833381	
228	-0.0653043	
229	-0.0587734	
230	-0.0582736	
231	-0.0583867	
232	-0.058754	
233	-0.0590269	
234	-0.0592835	
235	-0.0595661	
236	-0.0678168	
237	-0.0779463	
238	-0.0913618	
239	-0.10673	
240	-0.1256	
241	-0.131262	
242	-0.13615	
243	-0.131498	
244	-0.127551	
245	-0.118149	
246	-0.108915	
247	-0.103113	
248	-0.0920782	
249	-0.0891234	
250	-0.0893824	
251	-0.0833806	
252	-0.0659975	
253	-0.0581303	
254	-0.058	
255	-0.0577471	
256	-0.0574995	
257	-0.0585449	
258	-0.0590752	
259	-0.0586313	
260	-0.0671274	
261	-0.0800223	
262	-0.0904698	
263	-0.12046	
264	-0.164489	
265	-0.184489	
266	-0.152188	
267	-0.184675	
268	-0.255085	
269	-0.214305	
270	-0.177593	
271	-0.141681	
272	-0.09772	
273	-0.0902634	
274	-0.0885822	
275	-0.0850109	
276	-0.0649065	
277	-0.0590705	
278	-0.0573582	
279	-0.0600363	
280	-0.0606962	
281	-0.0624547	
282	-0.0608961	
283	-0.0613047	
284	-0.0710628	
285	-0.0850646	
286	-0.142115	
287	-0.210822	
288	-0.224674	
289	-0.227513	
290	-0.231252	
291	-0.196314	
292	-0.160612	
293	-0.15282	
294	-0.129339	
295	-0.10927	
296	-0.10659	
297	-0.106342	
298	-0.102723	
299	-0.0957392	
300	-0.0761274	
301	-0.0653632	
302	-0.0631262	
303	-0.0643386	
304	-0.0632844	
305	-0.0633383	
306	-0.0660367	
307	-0.0796344	
308	-0.0946435	
309	-0.11116	
310	-0.132672	
311	-0.173951	
312	-0.183436	
313	-0.206748	
314	-0.234917	
315	-0.209573	
316	-0.197009	
317	-0.157958	
318	-0.120001	
319	-0.115006	
320	-0.112227	
321	-0.109676	
322	-0.104007	
323	-0.0842479	
324	-0.0750559	
325	-0.0704038	
326	-0.0688145	
327	-0.0674923	
328	-0.0665544	
329	-0.0664145	
330	-0.0672098	
331	-0.0821166	
332	-0.099882	
333	-0.12859	
334	-0.130126	
335	-0.143097	
336	-0.167488	
337	-0.149328	
338	-0.137356	
339	-0.1083	
340	-0.089666	
341	-0.0671115	
342	-0.0647584	
343	-0.0643749	
344	-0.0655825	
345	-0.0638642	
346	-0.0602015	
347	-0.0490847	
348	-0.0413788	
349	-0.0400443	
350	-0.042067	
351	-0.0392692	
352	-0.0390106	
353	-0.0401374	
354	-0.0400839	
355	-0.0490453	
356	-0.0591572	
357	-0.0705965	
358	-0.0812048	
359	-0.095396	
360	-0.120638	
361	-0.137277	
362	-0.120837	
363	-0.137384	
364	-0.0944242	
365	-0.0832961	
366	-0.0740426	
367	-0.0684164	
368	-0.0701648	
369	-0.0713741	
370	-0.0669124	
371	-0.0524308	
372	-0.0448357	
373	-0.0429109	
374	-0.0418533	
375	-0.0415703	
376	-0.0408557	
377	-0.0409588	
378	-0.0422604	
379	-0.0537519	
380	-0.0725751	
381	-0.0982183	
382	-0.0938827	
383	-0.134962	
384	-0.132716	
385	-0.0926132	
386	-0.114503	
387	-0.124725	
388	-0.144988	
389	-0.0939389	
390	-0.0693849	
391	-0.0700106	
392	-0.065478	
393	-0.0663521	
394	-0.0619469	
395	-0.0483354	
396	-0.0439856	
397	-0.0421788	
398	-0.0433863	
399	-0.0417539	
400	-0.0420797	
401	-0.0421746	
402	-0.0430004	
403	-0.0539864	
404	-0.0718654	
405	-0.0931886	
406	-0.164857	
407	-0.254937	
408	-0.196888	
409	-0.164818	
410	-0.230671	
411	-0.208974	
412	-0.160487	
413	-0.152392	
414	-0.101428	
415	-0.0933849	
416	-0.0883562	
417	-0.0865651	
418	-0.0807151	
419	-0.0598385	
420	-0.0521852	
421	-0.051489	
422	-0.0518451	
423	-0.0519599	
424	-0.0518276	
425	-0.0524887	
426	-0.0528467	
427	-0.0598503	
428	-0.0772692	
429	-0.124005	
430	-0.19608	
431	-0.230459	
432	-0.198234	
433	-0.204864	
434	-0.182574	
435	-0.17557	
436	-0.178519	
437	-0.125087	
438	-0.0889911	
439	-0.0914604	
440	-0.0907348	
441	-0.0869649	
442	-0.0834229	
443	-0.0621685	
444	-0.0526936	
445	-0.0505817	
446	-0.0494683	
447	-0.0485532	
448	-0.0474479	
449	-0.0466794	
450	-0.0482474	
451	-0.0611368	
452	-0.0817099	
453	-0.120321	
454	-0.126024	
455	-0.165615	
456	-0.144294	
457	-0.104333	
458	-0.097397	
459	-0.092571	
460	-0.0926083	
461	-0.0939104	
462	-0.0957467	
463	-0.0833977	
464	-0.0786937	
465	-0.0742136	
466	-0.0680232	
467	-0.0568797	
468	-0.0519825	
469	-0.0507197	
470	-0.0502613	
471	-0.0499842	
472	-0.0488129	
473	-0.0490578	
474	-0.0502375	
475	-0.0587376	
476	-0.0752054	
477	-0.17975	
478	-0.150242	
479	-0.178641	
480	-0.246709	
481	-0.222152	
482	-0.179216	
483	-0.21434	
484	-0.218802	
485	-0.146169	
486	-0.109909	
487	-0.0919771	
488	-0.0943921	
489	-0.0946028	
490	-0.0903453	
491	-0.0653588	
492	-0.0580934	
493	-0.0559811	
494	-0.0569265	
495	-0.0575982	
496	-0.0583929	
497	-0.0575032	
498	-0.0578289	
499	-0.0678916	
500	-0.0865048	
501	-0.150871	
502	-0.200575	
503	-0.188934	
504	-0.224098	
505	-0.228017	
506	-0.193529	
507	-0.143862	
508	-0.120728	
509	-0.118859	
510	-0.10555	
511	-0.100826	
512	-0.0985299	
513	-0.0979438	
514	-0.0911242	
515	-0.0754461	
516	-0.0666065	
517	-0.0646312	
518	-0.0613405	
519	-0.0609997	
520	-0.0582356	
521	-0.0562374	
522	-0.0567641	
523	-0.0723654	
524	-0.0900407	
525	-0.130829	
526	-0.122435	
527	-0.194636	
528	-0.158515	
529	-0.169859	
530	-0.169554	
531	-0.168891	
532	-0.168178	
533	-0.14589	
534	-0.108463	
535	-0.0872143	
536	-0.0839928	
537	-0.0830234	
538	-0.0782233	
539	-0.0644847	
540	-0.0579043	
541	-0.0566115	
542	-0.0571644	
543	-0.0562706	
544	-0.055464	
545	-0.0560401	
546	-0.0572103	
547	-0.0653277	
548	-0.0803849	
549	-0.103932	
550	-0.127142	
551	-0.149427	
552	-0.19837	
553	-0.199238	
554	-0.205032	
555	-0.249648	
556	-0.203726	
557	-0.166277	
558	-0.128516	
559	-0.0960544	
560	-0.0942854	
561	-0.0947561	
562	-0.0910742	
563	-0.0727832	
564	-0.0652356	
565	-0.0633336	
566	-0.0603852	
567	-0.0594646	
568	-0.0600051	
569	-0.0606989	
570	-0.0613548	
571	-0.0743946	
572	-0.0938112	
573	-0.131643	
574	-0.140049	
575	-0.130747	
576	-0.246433	
577	-0.209483	
578	-0.189773	
579	-0.177919	
580	-0.191598	
581	-0.187029	
582	-0.150169	
583	-0.110421	
584	-0.10399	
585	-0.102551	
586	-0.0954047	
587	-0.0763685	
588	-0.0666831	
589	-0.0671427	
590	-0.0669204	
591	-0.0673215	
592	-0.0679268	
593	-0.067884	
594	-0.0674789	
595	-0.0788686	
596	-0.0991509	
597	-0.15146	
598	-0.124593	
599	-0.21723	
600	-0.247048	
601	-0.228836	
602	-0.2159	
603	-0.18376	
604	-0.148692	
605	-0.107839	
606	-0.114919	
607	-0.0930417	
608	-0.0932456	
609	-0.0942974	
610	-0.0912322	
611	-0.0783924	
612	-0.0693097	
613	-0.0670916	
614	-0.0670273	
615	-0.0661739	
616	-0.0651626	
617	-0.0644255	
618	-0.0661152	
619	-0.0808256	
620	-0.0944754	
621	-0.170284	
622	-0.240571	
623	-0.246319	
624	-0.157511	
625	-0.167901	
626	-0.240334	
627	-0.210113	
628	-0.165799	
629	-0.171003	
630	-0.147434	
631	-0.107156	
632	-0.0960634	
633	-0.0913109	
634	-0.0860632	
635	-0.0793499	
636	-0.0732281	
637	-0.0703547	
638	-0.06896	
639	-0.0690452	
640	-0.0700109	
641	-0.0696559	
642	-0.071719	
643	-0.0821583	
644	-0.0968243	
645	-0.124811	
646	-0.207266	
647	-0.250121	
648	-0.282775	
649	-0.272044	
650	-0.222353	
651	-0.191606	
652	-0.167664	
653	-0.150926	
654	-0.125359	
655	-0.109911	
656	-0.097844	
657	-0.0950386	
658	-0.0901746	
659	-0.0816698	
660	-0.0742781	
661	-0.0721168	
662	-0.0710486	
663	-0.0700494	
664	-0.0696081	
665	-0.0693072	
666	-0.0709506	
667	-0.0820516	
668	-0.088326	
669	-0.0920598	
670	-0.0951298	
671	-0.104179	
672	-0.121988	
673	-0.172521	
674	-0.181237	
675	-0.17871	
676	-0.160487	
677	-0.171534	
678	-0.12506	
679	-0.0970491	
680	-0.0929308	
681	-0.0927617	
682	-0.0906414	
683	-0.0780821	
684	-0.0734684	
685	-0.0723809	
686	-0.0716732	
687	-0.0722297	
688	-0.0728954	
689	-0.0734312	
690	-0.0747998	
691	-0.0844488	
692	-0.0986463	
693	-0.107328	
694	-0.120497	
695	-0.170846	
696	-0.186421	
697	-0.176288	
698	-0.17706	
699	-0.179921	
700	-0.167568	
701	-0.132118	
702	-0.108619	
703	-0.0950668	
704	-0.0898118	
705	-0.0899345	
706	-0.0850026	
707	-0.079334	
708	-0.0765949	
709	-0.0735022	
710	-0.0720125	
711	-0.0718909	
712	-0.0720704	
713	-0.0728604	
714	-0.0737259	
715	-0.0866849	
716	-0.0993126	
717	-0.100992	
718	-0.10551	
719	-0.112691	
720	-0.112023	
721	-0.192478	
722	-0.139871	
723	-0.114288	
724	-0.106755	
725	-0.100289	
726	-0.0939854	
727	-0.0889644	
728	-0.0907715	
729	-0.08842	
730	-0.0876338	
731	-0.0777881	
732	-0.0738331	
733	-0.0726376	
734	-0.0717208	
735	-0.0708843	
736	-0.0703232	
737	-0.070334	
738	-0.0722354	
739	-0.084407	
740	-0.101704	
741	-0.164966	
742	-0.223169	
743	-0.222926	
744	-0.262953	
745	-0.208752	
746	-0.18047	
747	-0.162504	
748	-0.169382	
749	-0.14358	
750	-0.126679	
751	-0.110707	
752	-0.102955	
753	-0.0984672	
754	-0.0946775	
755	-0.0878537	
756	-0.0835821	
757	-0.0806796	
758	-0.0789835	
759	-0.0767471	
760	-0.0759901	
761	-0.0750291	
762	-0.0763468	
763	-0.0868249	
764	-0.100101	
765	-0.110759	
766	-0.170006	
767	-0.220998	
768	-0.258782	
769	-0.249523	
770	-0.189234	
771	-0.213243	
772	-0.237976	
773	-0.187303	
774	-0.165758	
775	-0.145217	
776	-0.110019	
777	-0.0927622	
778	-0.0853478	
779	-0.0813103	
780	-0.078326	
781	-0.0771672	
782	-0.0769982	
783	-0.0775668	
784	-0.0771606	
785	-0.0782017	
786	-0.0786351	
787	-0.0862951	
788	-0.107723	
789	-0.147582	
790	-0.230469	
791	-0.242252	
792	-0.279954	
793	-0.268145	
794	-0.210598	
795	-0.196923	
796	-0.16976	
797	-0.156599	
798	-0.129076	
799	-0.115343	
800	-0.110208	
801	-0.104512	
802	-0.0970276	
803	-0.0824373	
804	-0.0796122	
805	-0.0800355	
806	-0.0790717	
807	-0.0786973	
808	-0.0792884	
809	-0.0796261	
810	-0.0789704	
811	-0.0886658	
812	-0.100944	
813	-0.154016	
814	-0.289676	
815	-0.307495	
816	-0.271154	
817	-0.190543	
818	-0.27576	
819	-0.170911	
820	-0.14856	
821	-0.140345	
822	-0.171745	
823	-0.12397	
824	-0.112782	
825	-0.112587	
826	-0.107972	
827	-0.0965173	
828	-0.0907045	
829	-0.0903478	
830	-0.0888772	
831	-0.0886978	
832	-0.0878727	
833	-0.0871127	
834	-0.0881947	
835	-0.100591	
836	-0.124974	
837	-0.180675	
838	-0.198939	
839	-0.149583	
840	-0.156062	
841	-0.204612	
842	-0.278116	
843	-0.276316	
844	-0.142328	
845	-0.154217	
846	-0.166748	
847	-0.124865	
848	-0.113666	
849	-0.113728	
850	-0.10868	
851	-0.0948711	
852	-0.0901967	
853	-0.0889252	
854	-0.0877908	
855	-0.0885343	
856	-0.087628	
857	-0.0889878	
858	-0.0903593	
859	-0.102602	
860	-0.118317	
861	-0.133311	
862	-0.234207	
863	-0.264225	
864	-0.307596	
865	-0.298148	
866	-0.302625	
867	-0.287777	
868	-0.240456	
869	-0.200812	
870	-0.187658	
871	-0.145531	
872	-0.119969	
873	-0.118184	
874	-0.116259	
875	-0.0942681	
876	-0.0884062	
877	-0.0876617	
878	-0.0881202	
879	-0.0866587	
880	-0.0889219	
881	-0.0875468	
882	-0.0887929	
883	-0.0975808	
884	-0.11536	
885	-0.141583	
886	-0.15606	
887	-0.135503	
888	-0.175502	
889	-0.226019	
890	-0.290725	
891	-0.250238	
892	-0.248632	
893	-0.214815	
894	-0.182376	
895	-0.146738	
896	-0.114455	
897	-0.113949	
898	-0.108137	
899	-0.0990793	
900	-0.0966614	
901	-0.0973049	
902	-0.0966365	
903	-0.0951443	
904	-0.0937142	
905	-0.0940782	
906	-0.0953721	
907	-0.109032	
908	-0.121701	
909	-0.184617	
910	-0.275922	
911	-0.286398	
912	-0.228813	
913	-0.20009	
914	-0.221745	
915	-0.205169	
916	-0.183805	
917	-0.152676	
918	-0.127695	
919	-0.120613	
920	-0.114456	
921	-0.109286	
922	-0.106694	
923	-0.101437	
924	-0.0982184	
925	-0.0965428	
926	-0.0960048	
927	-0.0952109	
928	-0.0950852	
929	-0.0944094	
930	-0.09562	
931	-0.109042	
932	-0.114262	
933	-0.122756	
934	-0.150697	
935	-0.231725	
936	-0.247079	
937	-0.297594	
938	-0.33869	
939	-0.228539	
940	-0.266837	
941	-0.227234	
942	-0.17256	
943	-0.135267	
944	-0.120657	
945	-0.115297	
946	-0.114092	
947	-0.103546	
948	-0.100565	
949	-0.0972793	
950	-0.0976349	
951	-0.0979649	
952	-0.0977754	
953	-0.09671	
954	-0.0977498	
955	-0.104602	
956	-0.0720241	
957	-0.0953182	
958	-0.151667	
959	-0.190398	
960	-0.260094	
961	-0.195449	
962	-0.164147	
963	-0.151856	
964	-0.0758284	
965	-0.0714763	
966	-0.070464	
967	-0.0660659	
968	-0.0650551	
969	-0.0653352	
970	-0.0609022	
971	-0.0573583	
972	-0.0527353	
973	-0.0519798	
974	-0.0531768	
975	-0.050829	
976	-0.0501642	
977	-0.0512008	
978	-0.0519641	
979	-0.0603931	
980	-0.0753683	
981	-0.153198	
982	-0.189727	
983	-0.132037	
984	-0.133456	
985	-0.199636	
986	-0.231051	
987	-0.188348	
988	-0.147408	
989	-0.162155	
990	-0.1346	
991	-0.104687	
992	-0.0884152	
993	-0.0877993	
994	-0.0831102	
995	-0.06424	
996	-0.0598671	
997	-0.0597519	
998	-0.0607574	
999	-0.0612457	
1000	-0.0620663	
1001	-0.06156	
1002	-0.0638953	
1003	-0.0764015	
1004	-0.092379	
1005	-0.108471	
1006	-0.111394	
1007	-0.13013	
1008	-0.14869	
1009	-0.122102	
1010	-0.0950844	
1011	-0.137272	
1012	-0.183609	
1013	-0.140589	
1014	-0.0963609	
1015	-0.0856495	
1016	-0.075336	
1017	-0.0786737	
1018	-0.0791354	
1019	-0.0630853	
1020	-0.0609376	
1021	-0.0587592	
1022	-0.059997	
1023	-0.0603321	
1024	-0.0611895	
1025	-0.0614925	
1026	-0.0629482	
1027	-0.0724605	
1028	-0.114629	
1029	-0.236495	
1030	-0.259394	
1031	-0.225936	
1032	-0.28886	
1033	-0.235389	
1034	-0.210167	
1035	-0.3004	
1036	-0.239634	
1037	-0.181573	
1038	-0.130334	
1039	-0.104863	
1040	-0.0882784	
1041	-0.0829067	
1042	-0.0794448	
1043	-0.0737851	
1044	-0.0690839	
1045	-0.0669051	
1046	-0.0658404	
1047	-0.0655065	
1048	-0.0644792	
1049	-0.0633718	
1050	-0.0633928	
1051	-0.077553	
1052	-0.0920074	
1053	-0.13177	
1054	-0.143034	
1055	-0.128035	
1056	-0.147239	
1057	-0.184306	
1058	-0.173106	
1059	-0.136455	
1060	-0.140535	
1061	-0.128047	
1062	-0.110434	
1063	-0.0983738	
1064	-0.0876285	
1065	-0.0816614	
1066	-0.0772518	
1067	-0.0707451	
1068	-0.0677347	
1069	-0.0655296	
1070	-0.0687569	
1071	-0.0667434	
1072	-0.064405	
1073	-0.0642269	
1074	-0.0635136	
1075	-0.080473	
1076	-0.0911283	
1077	-0.0881509	
1078	-0.104097	
1079	-0.109553	
1080	-0.113183	
1081	-0.112123	
1082	-0.111148	
1083	-0.111733	
1084	-0.0987823	
1085	-0.090805	
1086	-0.0980916	
1087	-0.0834165	
1088	-0.0766115	
1089	-0.079286	
1090	-0.0751574	
1091	-0.0661913	
1092	-0.063893	
1093	-0.062635	
1094	-0.0619279	
1095	-0.0613359	
1096	-0.0618152	
1097	-0.0635703	
1098	-0.0620261	
1099	-0.0737905	
1100	-0.0984789	
1101	-0.137742	
1102	-0.122969	
1103	-0.145652	
1104	-0.199983	
1105	-0.154827	
1106	-0.156663	
1107	-0.158799	
1108	-0.145354	
1109	-0.159318	
1110	-0.124357	
1111	-0.102683	
1112	-0.0965657	
1113	-0.0957196	
1114	-0.0907964	
1115	-0.0808206	
1116	-0.0759525	
1117	-0.0718246	
1118	-0.0714755	
1119	-0.0698936	
1120	-0.0702226	
1121	-0.0687392	
1122	-0.0690045	
1123	-0.0823057	
1124	-0.101611	
1125	-0.120912	
1126	-0.168881	
1127	-0.169979	
1128	-0.18403	
1129	-0.188801	
1130	-0.141594	
1131	-0.153584	
1132	-0.136504	
1133	-0.126439	
1134	-0.157671	
1135	-0.11848	
1136	-0.0915305	
1137	-0.0925021	
1138	-0.0883503	
1139	-0.0774229	
1140	-0.0720226	
1141	-0.0723219	
1142	-0.0731922	
1143	-0.0726135	
1144	-0.0725713	
1145	-0.0731322	
1146	-0.0727139	
1147	-0.0848766	
1148	-0.116489	
1149	-0.202352	
1150	-0.257196	
1151	-0.23883	
1152	-0.274716	
1153	-0.342433	
1154	-0.321352	
1155	-0.300425	
1156	-0.238023	
1157	-0.192759	
1158	-0.168834	
1159	-0.139738	
1160	-0.122313	
1161	-0.110042	
1162	-0.0999748	
1163	-0.10188	
1164	-0.10368	
1165	-0.0980709	
1166	-0.0907684	
1167	-0.0856244	
1168	-0.0822114	
1169	-0.0798143	
1170	-0.0806798	
1171	-0.0920861	
1172	-0.104783	
1173	-0.113458	
1174	-0.113542	
1175	-0.115546	
1176	-0.154445	
1177	-0.202191	
1178	-0.195628	
1179	-0.172919	
1180	-0.146154	
1181	-0.138837	
1182	-0.140118	
1183	-0.120849	
1184	-0.104083	
1185	-0.0974579	
1186	-0.0953409	
1187	-0.086874	
1188	-0.0821408	
1189	-0.0809234	
1190	-0.0791731	
1191	-0.0788791	
1192	-0.0787212	
1193	-0.0782888	
1194	-0.0803199	
1195	-0.0951685	
1196	-0.166865	
1197	-0.291262	
1198	-0.249703	
1199	-0.233586	
1200	-0.254642	
1201	-0.257183	
1202	-0.251505	
1203	-0.261878	
1204	-0.159906	
1205	-0.123277	
1206	-0.130676	
1207	-0.111904	
1208	-0.100067	
1209	-0.0943115	
1210	-0.09348	
1211	-0.0860639	
1212	-0.0837219	
1213	-0.0813069	
1214	-0.0800649	
1215	-0.0807666	
1216	-0.0812388	
1217	-0.0818527	
1218	-0.0824021	
1219	-0.0928805	
1220	-0.159387	
1221	-0.287447	
1222	-0.258525	
1223	-0.242581	
1224	-0.301757	
1225	-0.352665	
1226	-0.341148	
1227	-0.306864	
1228	-0.268888	
1229	-0.240105	
1230	-0.203312	
1231	-0.161258	
1232	-0.128136	
1233	-0.113906	
1234	-0.108155	
1235	-0.0998971	
1236	-0.0944509	
1237	-0.0923902	
1238	-0.090568	
1239	-0.0904628	
1240	-0.0912374	
1241	-0.0906584	
1242	-0.0908825	
1243	-0.109903	
1244	-0.133337	
1245	-0.144436	
1246	-0.1797	
1247	-0.189956	
1248	-0.179857	
1249	-0.146428	
1250	-0.196225	
1251	-0.191624	
1252	-0.123082	
1253	-0.110023	
1254	-0.109529	
1255	-0.107889	
1256	-0.103588	
1257	-0.103484	
1258	-0.0984111	
1259	-0.092516	
1260	-0.0889589	
1261	-0.0874996	
1262	-0.0874958	
1263	-0.0865503	
1264	-0.0862765	
1265	-0.0862563	
1266	-0.0871836	
1267	-0.102562	
1268	-0.134256	
1269	-0.170965	
1270	-0.240235	
1271	-0.24986	
1272	-0.220266	
1273	-0.267389	
1274	-0.287624	
1275	-0.24014	
1276	-0.224495	
1277	-0.189712	
1278	-0.181589	
1279	-0.154156	
1280	-0.125359	
1281	-0.115998	
1282	-0.113568	
1283	-0.103225	
1284	-0.0974801	
1285	-0.0949853	
1286	-0.0950005	
1287	-0.0963903	
1288	-0.0965679	
1289	-0.096762	
1290	-0.0969175	
1291	-0.111388	
1292	-0.179669	
1293	-0.26366	
1294	-0.24647	
1295	-0.245399	
1296	-0.351121	
1297	-0.3276	
1298	-0.395934	
1299	-0.34891	
1300	-0.287863	
1301	-0.245983	
1302	-0.197736	
1303	-0.175412	
1304	-0.156603	
1305	-0.141527	
1306	-0.127688	
1307	-0.106113	
1308	-0.10357	
1309	-0.102088	
1310	-0.102944	
1311	-0.102522	
1312	-0.10316	
1313	-0.101016	
1314	-0.102552	
1315	-0.115118	
1316	-0.123998	
1317	-0.128858	
1318	-0.134413	
1319	-0.19382	
1320	-0.264567	
1321	-0.287481	
1322	-0.226154	
1323	-0.21515	
1324	-0.206798	
1325	-0.21038	
1326	-0.206667	
1327	-0.171982	
1328	-0.123426	
1329	-0.118688	
1330	-0.116768	
1331	-0.108759	
1332	-0.104556	
1333	-0.104179	
1334	-0.103057	
1335	-0.102635	
1336	-0.1022	
1337	-0.100751	
1338	-0.102525	
1339	-0.122328	
1340	-0.140828	
1341	-0.175218	
1342	-0.216403	
1343	-0.233661	
1344	-0.246915	
1345	-0.27405	
1346	-0.242045	
1347	-0.233344	
1348	-0.208457	
1349	-0.175038	
1350	-0.149271	
1351	-0.132885	
1352	-0.118448	
1353	-0.110239	
1354	-0.108729	
1355	-0.106498	
1356	-0.106228	
1357	-0.105952	
1358	-0.106008	
1359	-0.103702	
1360	-0.103482	
1361	-0.103434	
1362	-0.105696	
1363	-0.117452	
1364	-0.164659	
1365	-0.224578	
1366	-0.262983	
1367	-0.203536	
1368	-0.216357	
1369	-0.214179	
1370	-0.217663	
1371	-0.225197	
1372	-0.26195	
1373	-0.175869	
1374	-0.163326	
1375	-0.1419	
1376	-0.128173	
1377	-0.122014	
1378	-0.116075	
1379	-0.112791	
1380	-0.111617	
1381	-0.110294	
1382	-0.109965	
1383	-0.108722	
1384	-0.108682	
1385	-0.106887	
1386	-0.107742	
1387	-0.117899	
1388	-0.125138	
1389	-0.137182	
1390	-0.171512	
1391	-0.164969	
1392	-0.194649	
1393	-0.214349	
1394	-0.208814	
1395	-0.235563	
1396	-0.208107	
1397	-0.183079	
1398	-0.148632	
1399	-0.136138	
1400	-0.126574	
1401	-0.123132	
1402	-0.118197	
1403	-0.114792	
1404	-0.11484	
1405	-0.112456	
1406	-0.111897	
1407	-0.112655	
1408	-0.113781	
1409	-0.113386	
1410	-0.114459	
1411	-0.128869	
1412	-0.135316	
1413	-0.153779	
1414	-0.193357	
1415	-0.206796	
1416	-0.229535	
1417	-0.210848	
1418	-0.204375	
1419	-0.20225	
1420	-0.190141	
1421	-0.20039	
1422	-0.194841	
1423	-0.178489	
1424	-0.15208	
1425	-0.140572	
1426	-0.131623	
1427	-0.125398	
1428	-0.121442	
1429	-0.121112	
1430	-0.120953	
1431	-0.121064	
1432	-0.120559	
1433	-0.119794	
1434	-0.120294	
1435	-0.134331	
1436	-0.144705	
1437	-0.160246	
1438	-0.208741	
1439	-0.223691	
1440	-0.228702	
1441	-0.239735	
1442	-0.267729	
1443	-0.248465	
1444	-0.216651	
1445	-0.222647	
1446	-0.210444	
1447	-0.163678	
1448	-0.14958	
1449	-0.139347	
1450	-0.135537	
1451	-0.128164	
1452	-0.124536	
1453	-0.124418	
1454	-0.12493	
1455	-0.123203	
1456	-0.124129	
1457	-0.124076	
1458	-0.123877	
1459	-0.138926	
1460	-0.150581	
1461	-0.178949	
1462	-0.218944	
1463	-0.265071	
1464	-0.375618	
1465	-0.377553	
1466	-0.369745	
1467	-0.266376	
1468	-0.268538	
1469	-0.228749	
1470	-0.217627	
1471	-0.189688	
1472	-0.149325	
1473	-0.138501	
1474	-0.132858	
1475	-0.129398	
1476	-0.128548	
1477	-0.126929	
1478	-0.127915	
1479	-0.128879	
1480	-0.12752	
1481	-0.1265	
1482	-0.129736	
1483	-0.142999	
1484	-0.150552	
1485	-0.157033	
1486	-0.161329	
1487	-0.198241	
1488	-0.29062	
1489	-0.303355	
1490	-0.349667	
1491	-0.252386	
1492	-0.236362	
1493	-0.264853	
1494	-0.219048	
1495	-0.191229	
1496	-0.172699	
1497	-0.163436	
1498	-0.14864	
1499	-0.143924	
1500	-0.142865	
1501	-0.141032	
1502	-0.142393	
1503	-0.143057	
1504	-0.142868	
1505	-0.142028	
1506	-0.145294	
1507	-0.160818	
1508	-0.179616	
1509	-0.212895	
1510	-0.325369	
1511	-0.288076	
1512	-0.323419	
1513	-0.321252	
1514	-0.348841	
1515	-0.264015	
1516	-0.239489	
1517	-0.224683	
1518	-0.201014	
1519	-0.18273	
1520	-0.168874	
1521	-0.159382	
1522	-0.148584	
1523	-0.144462	
1524	-0.142075	
1525	-0.140496	
1526	-0.139791	
1527	-0.139685	
1528	-0.13933	
1529	-0.13892	
1530	-0.139805	
1531	-0.150795	
1532	-0.16027	
1533	-0.176993	
1534	-0.209876	
1535	-0.221144	
1536	-0.241963	
1537	-0.263269	
1538	-0.252021	
1539	-0.257229	
1540	-0.260369	
1541	-0.242001	
1542	-0.224615	
1543	-0.215505	
1544	-0.170571	
1545	-0.153272	
1546	-0.148248	
1547	-0.144417	
1548	-0.144007	
1549	-0.143804	
1550	-0.144089	
1551	-0.144756	
1552	-0.146131	
1553	-0.146165	
1554	-0.14739	
1555	-0.156523	
1556	-0.27383	
1557	-0.349474	
1558	-0.317976	
1559	-0.283818	
1560	-0.39065	
1561	-0.420772	
1562	-0.3583	
1563	-0.305116	
1564	-0.30474	
1565	-0.284422	
1566	-0.259658	
1567	-0.222054	
1568	-0.20164	
1569	-0.168375	
1570	-0.158447	
1571	-0.156581	
1572	-0.156106	
1573	-0.155226	
1574	-0.154161	
1575	-0.153293	
1576	-0.152544	
1577	-0.152467	
1578	-0.152617	
1579	-0.162589	
1580	-0.287122	
1581	-0.349925	
1582	-0.33683	
1583	-0.301349	
1584	-0.429236	
1585	-0.492168	
1586	-0.467975	
1587	-0.393199	
1588	-0.370708	
1589	-0.37595	
1590	-0.326124	
1591	-0.274343	
1592	-0.243108	
1593	-0.207684	
1594	-0.192399	
1595	-0.184785	
1596	-0.180211	
1597	-0.176734	
1598	-0.175504	
1599	-0.171885	
1600	-0.169993	
1601	-0.168282	
1602	-0.169977	
1603	-0.186165	
1604	-0.277676	
1605	-0.292095	
1606	-0.294511	
1607	-0.340831	
1608	-0.428567	
1609	-0.49891	
1610	-0.399024	
1611	-0.366776	
1612	-0.383949	
1613	-0.310888	
1614	-0.25422	
1615	-0.257832	
1616	-0.228079	
1617	-0.211162	
1618	-0.195838	
1619	-0.191298	
1620	-0.189544	
1621	-0.186557	
1622	-0.188678	
1623	-0.182147	
1624	-0.180978	
1625	-0.179781	
1626	-0.181651	
1627	-0.197407	
1628	-0.268561	
1629	-0.297494	
1630	-0.286386	
1631	-0.309699	
1632	-0.431329	
1633	-0.3291	
1634	-0.274075	
1635	-0.368618	
1636	-0.304372	
1637	-0.3066	
1638	-0.267021	
1639	-0.241642	
1640	-0.229427	
1641	-0.216928	
1642	-0.20464	
1643	-0.193703	
1644	-0.191002	
1645	-0.190284	
1646	-0.189532	
1647	-0.188892	
1648	-0.189059	
1649	-0.189639	
1650	-0.192094	
1651	-0.202159	
1652	-0.208901	
1653	-0.220432	
1654	-0.222199	
1655	-0.248808	
1656	-0.25676	
1657	-0.262436	
1658	-0.270409	
1659	-0.288466	
1660	-0.269619	
1661	-0.258657	
1662	-0.250934	
1663	-0.224422	
1664	-0.216733	
1665	-0.205034	
1666	-0.19907	
1667	-0.194361	
1668	-0.191528	
1669	-0.191957	
1670	-0.191569	
1671	-0.192384	
1672	-0.194159	
1673	-0.193185	
1674	-0.195014	
1675	-0.212251	
1676	-0.335571	
1677	-0.390516	
1678	-0.377488	
1679	-0.327908	
1680	-0.452081	
1681	-0.471818	
1682	-0.463614	
1683	-0.380074	
1684	-0.373117	
1685	-0.363639	
1686	-0.318152	
1687	-0.276797	
1688	-0.255355	
1689	-0.239485	
1690	-0.223178	
1691	-0.217046	
1692	-0.214067	
1693	-0.211318	
1694	-0.209244	
1695	-0.207477	
1696	-0.206954	
1697	-0.205433	
1698	-0.207601	
1699	-0.227945	
1700	-0.359698	
1701	-0.401237	
1702	-0.396429	
1703	-0.355361	
1704	-0.488989	
1705	-0.551523	
1706	-0.521185	
1707	-0.404508	
1708	-0.419151	
1709	-0.403484	
1710	-0.343152	
1711	-0.301243	
1712	-0.281529	
1713	-0.257486	
1714	-0.241208	
1715	-0.235195	
1716	-0.231031	
1717	-0.227014	
1718	-0.225367	
1719	-0.223677	
1720	-0.22275	
1721	-0.221554	
1722	-0.223436	
1723	-0.244118	
1724	-0.377102	
1725	-0.418213	
1726	-0.421543	
1727	-0.373655	
1728	-0.512906	
1729	-0.571805	
1730	-0.549175	
1731	-0.443128	
1732	-0.471324	
1733	-0.440614	
1734	-0.392184	
1735	-0.345274	
1736	-0.31256	
1737	-0.283459	
1738	-0.2664	
1739	-0.258714	
1740	-0.254887	
1741	-0.251154	
1742	-0.248923	
1743	-0.246069	
1744	-0.244697	
1745	-0.243128	
1746	-0.245626	
1747	-0.266516	
1748	-0.39585	
1749	-0.435496	
1750	-0.441635	
1751	-0.415751	
1752	-0.553983	
1753	-0.549414	
1754	-0.524196	
1755	-0.415263	
1756	-0.281728	
1757	-0.243551	
1758	-0.223925	
1759	-0.206812	
1760	-0.180104	
1761	-0.150095	
1762	-0.150922	
1763	-0.117502	
1764	-0.0976771	
1765	-0.095842	
1766	-0.0958461	
1767	-0.0961263	
1768	-0.0980529	
1769	-0.0974971	
1770	-0.100254	
1771	-0.110701	
1772	-0.139924	
1773	-0.183825	
1774	-0.190261	
1775	-0.160516	
1776	-0.177639	
1777	-0.194205	
1778	-0.184492	
1779	-0.154088	
1780	-0.13173	
1781	-0.135084	
1782	-0.128433	
1783	-0.113079	
1784	-0.113221	
1785	-0.108773	
1786	-0.103208	
1787	-0.103163	
1788	-0.10014	
1789	-0.0992838	
1790	-0.098993	
1791	-0.0996658	
1792	-0.0998006	
1793	-0.0985421	
1794	-0.101365	
1795	-0.113449	
1796	-0.134174	
1797	-0.16446	
1798	-0.243102	
1799	-0.212686	
1800	-0.220265	
1801	-0.210649	
1802	-0.206699	
1803	-0.20222	
1804	-0.25429	
1805	-0.203421	
1806	-0.150687	
1807	-0.154966	
1808	-0.134553	
1809	-0.121792	
1810	-0.115379	
1811	-0.109645	
1812	-0.108592	
1813	-0.108141	
1814	-0.107551	
1815	-0.107203	
1816	-0.109001	
1817	-0.107484	
1818	-0.110615	
1819	-0.122088	
1820	-0.137397	
1821	-0.223088	
1822	-0.252085	
1823	-0.260794	
1824	-0.28377	
1825	-0.278246	
1826	-0.320824	
1827	-0.324558	
1828	-0.332863	
1829	-0.235723	
1830	-0.204879	
1831	-0.190852	
1832	-0.169174	
1833	-0.144509	
1834	-0.129407	
1835	-0.123656	
1836	-0.121043	
1837	-0.119912	
1838	-0.118013	
1839	-0.118221	
1840	-0.117653	
1841	-0.117939	
1842	-0.119691	
1843	-0.137332	
1844	-0.215061	
1845	-0.303613	
1846	-0.31001	
1847	-0.268564	
1848	-0.329773	
1849	-0.363693	
1850	-0.353416	
1851	-0.29917	
1852	-0.324542	
1853	-0.267045	
1854	-0.23004	
1855	-0.198559	
1856	-0.186849	
1857	-0.160316	
1858	-0.141856	
1859	-0.136068	
1860	-0.132384	
1861	-0.130655	
1862	-0.128755	
1863	-0.1287	
1864	-0.128437	
1865	-0.127831	
1866	-0.130721	
1867	-0.150977	
1868	-0.175363	
1869	-0.189478	
1870	-0.207311	
1871	-0.209859	
1872	-0.211414	
1873	-0.238392	
1874	-0.226971	
1875	-0.196249	
1876	-0.163555	
1877	-0.180764	
1878	-0.178254	
1879	-0.167438	
1880	-0.160097	
1881	-0.144458	
1882	-0.135444	
1883	-0.134337	
1884	-0.13265	
1885	-0.129841	
1886	-0.130226	
1887	-0.12988	
1888	-0.129931	
1889	-0.130771	
1890	-0.13155	
1891	-0.139509	
1892	-0.151217	
1893	-0.155952	
1894	-0.155941	
1895	-0.16968	
1896	-0.172803	
1897	-0.170242	
1898	-0.181058	
1899	-0.176826	
1900	-0.181588	
1901	-0.165124	
1902	-0.153351	
1903	-0.147366	
1904	-0.142054	
1905	-0.139481	
1906	-0.133891	
1907	-0.13137	
1908	-0.12975	
1909	-0.129691	
1910	-0.129262	
1911	-0.128816	
1912	-0.129004	
1913	-0.129404	
1914	-0.129836	
1915	-0.143028	
1916	-0.22876	
1917	-0.301573	
1918	-0.308045	
1919	-0.247492	
1920	-0.313252	
1921	-0.346803	
1922	-0.367188	
1923	-0.31492	
1924	-0.27405	
1925	-0.304706	
1926	-0.242903	
1927	-0.219364	
1928	-0.193615	
1929	-0.167062	
1930	-0.153523	
1931	-0.149312	
1932	-0.146697	
1933	-0.145298	
1934	-0.144772	
1935	-0.143106	
1936	-0.143623	
1937	-0.143373	
1938	-0.146178	
1939	-0.177183	
1940	-0.307761	
1941	-0.327066	
1942	-0.338548	
1943	-0.302078	
1944	-0.373653	
1945	-0.507367	
1946	-0.428472	
1947	-0.243952	
1948	-0.314318	
1949	-0.30513	
1950	-0.245942	
1951	-0.230648	
1952	-0.207115	
1953	-0.184286	
1954	-0.170114	
1955	-0.165412	
1956	-0.163731	
1957	-0.162798	
1958	-0.160065	
1959	-0.159179	
1960	-0.158076	
1961	-0.157688	
1962	-0.16071	
1963	-0.183219	
1964	-0.271621	
1965	-0.285432	
1966	-0.307791	
1967	-0.304154	
1968	-0.360837	
1969	-0.452525	
1970	-0.492138	
1971	-0.324934	
1972	-0.293241	
1973	-0.290011	
1974	-0.249606	
1975	-0.220478	
1976	-0.219622	
1977	-0.193581	
1978	-0.179687	
1979	-0.175641	
1980	-0.172743	
1981	-0.171521	
1982	-0.170374	
1983	-0.169511	
1984	-0.168751	
1985	-0.168632	
1986	-0.168701	
1987	-0.191762	
1988	-0.313027	
1989	-0.344094	
1990	-0.373566	
1991	-0.335371	
1992	-0.4081	
1993	-0.534934	
1994	-0.53635	
1995	-0.49594	
1996	-0.416838	
1997	-0.390705	
1998	-0.334345	
1999	-0.288851	
2000	-0.265347	
2001	-0.229568	
2002	-0.210876	
2003	-0.203933	
2004	-0.198588	
2005	-0.196572	
2006	-0.196335	
2007	-0.193226	
2008	-0.191753	
2009	-0.190416	
2010	-0.193722	
2011	-0.227512	
2012	-0.356475	
2013	-0.367032	
2014	-0.409185	
2015	-0.370677	
2016	-0.446597	
2017	-0.564807	
2018	-0.580916	
2019	-0.534965	
2020	-0.45549	
2021	-0.432314	
2022	-0.371768	
2023	-0.319127	
2024	-0.289522	
2025	-0.255854	
2026	-0.236769	
2027	-0.232286	
2028	-0.227824	
2029	-0.223491	
2030	-0.219675	
2031	-0.21735	
2032	-0.215055	
2033	-0.21377	
2034	-0.216547	
2035	-0.261023	
2036	-0.369763	
2037	-0.391617	
2038	-0.435932	
2039	-0.398495	
2040	-0.472121	
2041	-0.58854	
2042	-0.615395	
2043	-0.572139	
2044	-0.520434	
2045	-0.476234	
2046	-0.419411	
2047	-0.368638	
2048	-0.335647	
2049	-0.28916	
2050	-0.258902	
2051	-0.24968	
2052	-0.247088	
2053	-0.248783	
2054	-0.251026	
2055	-0.253252	
2056	-0.250661	
2057	-0.24888	
2058	-0.261579	
2059	-0.313985	
2060	-0.367137	
2061	-0.424144	
2062	-0.481258	
2063	-0.420475	
2064	-0.489271	
2065	-0.607419	
2066	-0.630423	
2067	-0.490012	
2068	-0.434939	
2069	-0.448778	
2070	-0.394113	
2071	-0.341934	
2072	-0.326355	
2073	-0.313098	
2074	-0.297576	
2075	-0.290951	
2076	-0.287785	
2077	-0.285115	
2078	-0.281611	
2079	-0.277593	
2080	-0.276173	
2081	-0.274725	
2082	-0.277119	
2083	-0.299037	
2084	-0.329468	
2085	-0.409157	
2086	-0.42855	
2087	-0.40722	
2088	-0.416454	
2089	-0.425426	
2090	-0.43735	
2091	-0.414328	
2092	-0.372418	
2093	-0.379915	
2094	-0.359975	
2095	-0.352891	
2096	-0.341737	
2097	-0.324372	
2098	-0.306897	
2099	-0.306694	
2100	-0.309869	
2101	-0.301534	
2102	-0.295152	
2103	-0.291871	
2104	-0.288734	
2105	-0.287234	
2106	-0.288407	
2107	-0.334569	
2108	-0.450012	
2109	-0.447884	
2110	-0.494418	
2111	-0.445914	
2112	-0.464574	
2113	-0.457843	
2114	-0.479434	
2115	-0.443048	
2116	-0.423937	
2117	-0.402604	
2118	-0.396001	
2119	-0.381908	
2120	-0.36003	
2121	-0.341077	
2122	-0.329627	
2123	-0.325734	
2124	-0.324519	
2125	-0.321216	
2126	-0.319399	
2127	-0.315309	
2128	-0.313191	
2129	-0.311755	
2130	-0.313672	
2131	-0.362691	
2132	-0.431756	
2133	-0.409747	
2134	-0.490736	
2135	-0.455709	
2136	-0.480084	
2137	-0.478788	
2138	-0.508133	
2139	-0.495914	
2140	-0.474942	
2141	-0.455145	
2142	-0.435694	
2143	-0.425571	
2144	-0.401216	
2145	-0.376134	
2146	-0.355621	
2147	-0.350334	
2148	-0.347348	
2149	-0.344129	
2150	-0.341376	
2151	-0.339429	
2152	-0.337992	
2153	-0.336779	
2154	-0.338702	
2155	-0.387947	
2156	-0.489104	
2157	-0.492274	
2158	-0.543048	
2159	-0.497624	
2160	-0.53185	
2161	-0.517266	
2162	-0.563055	
2163	-0.54214	
2164	-0.533058	
2165	-0.498875	
2166	-0.4869	
2167	-0.463928	
2168	-0.433333	
2169	-0.416017	
2170	-0.408393	
2171	-0.412216	
2172	-0.408327	
2173	-0.395298	
2174	-0.386545	
2175	-0.380383	
2176	-0.375369	
2177	-0.373473	
2178	-0.376279	
2179	-0.432663	
2180	-0.526215	
2181	-0.540429	
2182	-0.58859	
2183	-0.542862	
2184	-0.578989	
2185	-0.571545	
2186	-0.615209	
2187	-0.594101	
2188	-0.584388	
2189	-0.558709	
2190	-0.514541	
2191	-0.51516	
2192	-0.486378	
2193	-0.457312	
2194	-0.437188	
2195	-0.431038	
2196	-0.427447	
2197	-0.423859	
2198	-0.419996	
2199	-0.418311	
2200	-0.41517	
2201	-0.413249	
2202	-0.416281	
2203	-0.469836	
2204	-0.57484	
2205	-0.591384	
2206	-0.635431	
2207	-0.588275	
2208	-0.615692	
2209	-0.578628	
2210	-0.607138	
2211	-0.596067	
2212	-0.585857	
2213	-0.54164	
2214	-0.514295	
2215	-0.503833	
2216	-0.513234	
2217	-0.504788	
2218	-0.475214	
2219	-0.461803	
2220	-0.462028	
2221	-0.461224	
2222	-0.457794	
2223	-0.455217	
2224	-0.453549	
2225	-0.452398	
2226	-0.457054	
2227	-0.511539	
2228	-0.613224	
2229	-0.622659	
2230	-0.627192	
2231	-0.63923	
2232	-0.658079	
2233	-0.644202	
2234	-0.681438	
2235	-0.66531	
2236	-0.65971	
2237	-0.603023	
2238	-0.550383	
2239	-0.533558	
2240	-0.522468	
2241	-0.517039	
2242	-0.501249	
2243	-0.4998	
2244	-0.496542	
2245	-0.493948	
2246	-0.492336	
2247	-0.492396	
2248	-0.491756	
2249	-0.488907	
2250	-0.491044	
2251	-0.496947	
2252	-0.50065	
2253	-0.517629	
2254	-0.525403	
2255	-0.564238	
2256	-0.564431	
2257	-0.606035	
2258	-0.567649	
2259	-0.518911	
2260	-0.529764	
2261	-0.553171	
2262	-0.556965	
2263	-0.542234	
2264	-0.532361	
2265	-0.524948	
2266	-0.517735	
2267	-0.514676	
2268	-0.510771	
2269	-0.509382	
2270	-0.51026	
2271	-0.508619	
2272	-0.509064	
2273	-0.507812	
2274	-0.511565	
2275	-0.533608	
2276	-0.614092	
2277	-0.671126	
2278	-0.685682	
2279	-0.619148	
2280	-0.656916	
2281	-0.662624	
2282	-0.655573	
2283	-0.65798	
2284	-0.653185	
2285	-0.640514	
2286	-0.631392	
2287	-0.630558	
2288	-0.616256	
2289	-0.583259	
2290	-0.568884	
2291	-0.564223	
2292	-0.560864	
2293	-0.558084	
2294	-0.556522	
2295	-0.554692	
2296	-0.553072	
2297	-0.553219	
2298	-0.557931	
2299	-0.618663	
2300	-0.691418	
2301	-0.702888	
2302	-0.77723	
2303	-0.711396	
2304	-0.732359	
2305	-0.702116	
2306	-0.703597	
2307	-0.72043	
2308	-0.716047	
2309	-0.708026	
2310	-0.704091	
2311	-0.687654	
2312	-0.657634	
2313	-0.653881	
2314	-0.624279	
2315	-0.618616	
2316	-0.615801	
2317	-0.613803	
2318	-0.610472	
2319	-0.608043	
2320	-0.607292	
2321	-0.607067	
2322	-0.615399	
2323	-0.670992	
2324	-0.742873	
2325	-0.76756	
2326	-0.820126	
2327	-0.775409	
2328	-0.819967	
2329	-0.798289	
2330	-0.834206	
2331	-0.796886	
2332	-0.709718	
2333	-0.68632	
2334	-0.680973	
2335	-0.675669	
2336	-0.67329	
2337	-0.669035	
2338	-0.65919	
2339	-0.656555	
2340	-0.654549	
2341	-0.653665	
2342	-0.652879	
2343	-0.653366	
2344	-0.652472	
2345	-0.652098	
2346	-0.657626	
2347	-0.690417	
2348	-0.761441	
2349	-0.808403	
2350	-0.799065	
2351	-0.820181	
2352	-0.823012	
2353	-0.796069	
2354	-0.822724	
2355	-0.804955	
2356	-0.810913	
2357	-0.793595	
2358	-0.789686	
2359	-0.787333	
2360	-0.772417	
2361	-0.739242	
2362	-0.724038	
2363	-0.72147	
2364	-0.719034	
2365	-0.716654	
2366	-0.715049	
2367	-0.713999	
2368	-0.712562	
2369	-0.711912	
2370	-0.714662	
2371	-0.755264	
2372	-0.845805	
2373	-0.848491	
2374	-0.904313	
2375	-0.873574	
2376	-0.880725	
2377	-0.880037	
2378	-0.889738	
2379	-0.917501	
2380	-0.932226	
2381	-0.901838	
2382	-0.874941	
2383	-0.86802	
2384	-0.844677	
2385	-0.815658	
2386	-0.803733	
2387	-0.80629	
2388	-0.79973	
2389	-0.790156	
2390	-0.786904	
2391	-0.784942	
2392	-0.7834	
2393	-0.783156	
2394	-0.784182	
2395	-0.833574	
2396	-0.943323	
2397	-0.957673	
2398	-1.0281	
2399	-0.98724	
2400	-1.02308	
2401	-1.01751	
2402	-1.04088	
2403	-1.01718	
2404	-1.00044	
2405	-0.934465	
2406	-0.984565	
2407	-0.963772	
2408	-0.93323	
2409	-0.914874	
2410	-0.904045	
2411	-0.898133	
2412	-0.889106	
2413	-0.887348	
2414	-0.88834	
2415	-0.887085	
2416	-0.88655	
2417	-0.886036	
2418	-0.89011	
2419	-0.938476	
2420	-0.953938	
2421	-0.950237	
2422	-0.977016	
2423	-0.981548	
2424	-1.00123	
2425	-1.02724	
2426	-1.03818	
2427	-0.998868	
2428	-0.975901	
2429	-0.955795	
2430	-0.959596	
2431	-0.968947	
2432	-0.959837	
2433	-0.949222	
2434	-0.943416	
2435	-0.946615	
2436	-0.951921	
2437	-0.951204	
2438	-0.954029	
2439	-0.952449	
2440	-0.952106	
2441	-0.949077	
2442	-0.953214	
2443	-0.980605	
2444	-1.09199	
2445	-1.05397	
2446	-1.1193	
2447	-1.12176	
2448	-1.06992	
2449	-1.06707	
2450	-1.08973	
2451	-1.07294	
2452	-1.05829	
2453	-1.0407	
2454	-1.04633	
2455	-1.03141	
2456	-1.02418	
2457	-1.02033	
2458	-1.01263	
2459	-1.01273	
2460	-1.0084	
2461	-1.00932	
2462	-1.00959	
2463	-1.01106	
2464	-1.01174	
2465	-1.01236	
2466	-1.01574	
2467	-1.02459	
2468	-1.05402	
2469	-1.09743	
2470	-1.178	
2471	-1.11492	
2472	-1.11472	
2473	-1.09488	
2474	-1.10254	
2475	-1.11653	
2476	-1.14139	
2477	-1.13074	
2478	-1.12249	
2479	-1.11652	
2480	-1.11917	
2481	-1.08798	
2482	-1.08243	
2483	-1.07898	
2484	-1.07528	
2485	-1.07505	
2486	-1.07612	
2487	-1.0756	
2488	-1.07567	
2489	-1.07575	
2490	-1.0838	
2491	-1.13384	
2492	-1.25564	
2493	-1.23786	
2494	-1.32283	
2495	-1.2739	
2496	-1.29757	
2497	-1.28263	
2498	-1.28288	
2499	-1.29964	
2500	-1.28955	
2501	-1.263	
2502	-1.25675	
2503	-1.2664	
2504	-1.25343	
2505	-1.22195	
2506	-1.20639	
2507	-1.20506	
2508	-1.19923	
2509	-1.19519	
2510	-1.19559	
2511	-1.19513	
2512	-1.19348	
2513	-1.19332	
2514	-1.20413	
2515	-1.26759	
2516	-1.37846	
2517	-1.38638	
2518	-1.4598	
2519	-1.41617	
2520	-1.44687	
2521	-1.45443	
2522	-1.43263	
2523	-1.43265	
2524	-1.42741	
2525	-1.38467	
2526	-1.38366	
2527	-1.37012	
2528	-1.34771	
2529	-1.32738	
2530	-1.32168	
2531	-1.31895	
2532	-1.31817	
2533	-1.31689	
2534	-1.31617	
2535	-1.31603	
2536	-1.31521	
2537	-1.31532	
2538	-1.32292	
2539	-1.32932	
2540	-1.33342	
2541	-1.33591	
2542	-1.34196	
2543	-1.3433	
2544	-1.35253	
2545	-1.36981	
2546	-1.3659	
2547	-1.35616	
2548	-1.35524	
2549	-1.35856	
2550	-1.36067	
2551	-1.36127	
2552	-1.35755	
2553	-1.3509	
2554	-1.34713	
2555	-1.34793	
2556	-1.34792	
2557	-1.3474	
2558	-1.34671	
2559	-1.34723	
2560	-1.34626	
2561	-1.34681	
2562	-1.35531	
2563	-1.36997	
2564	-1.44381	
2565	-1.47815	
2566	-1.58785	
2567	-1.54503	
2568	-1.55914	
2569	-1.56558	
2570	-1.57917	
2571	-1.58396	
2572	-1.57035	
2573	-1.56973	
2574	-1.55291	
2575	-1.55542	
2576	-1.54211	
2577	-1.52927	
2578	-1.50673	
2579	-1.50034	
2580	-1.498	
2581	-1.49458	
2582	-1.49528	
2583	-1.49364	
2584	-1.49417	
2585	-1.49323	
2586	-1.50607	
2587	-1.52766	
2588	-1.57867	
2589	-1.61001	
2590	-1.63408	
2591	-1.62078	
2592	-1.6056	
2593	-1.6114	
2594	-1.61232	
2595	-1.61062	
2596	-1.62733	
2597	-1.63673	
2598	-1.63009	
2599	-1.62054	
2600	-1.60868	
2601	-1.58564	
2602	-1.58181	
2603	-1.58101	
2604	-1.58076	
2605	-1.58104	
2606	-1.5808	
2607	-1.58108	
2608	-1.58086	
2609	-1.5814	
2610	-1.59156	
2611	-1.60233	
2612	-1.62445	
2613	-1.6417	
2614	-1.64935	
2615	-1.66463	
2616	-1.67601	
2617	-1.67343	
2618	-1.69159	
2619	-1.70089	
2620	-1.69055	
2621	-1.68064	
2622	-1.67023	
2623	-1.67776	
2624	-1.68274	
2625	-1.66958	
2626	-1.65943	
2627	-1.651	
2628	-1.64938	
2629	-1.65117	
2630	-1.65252	
2631	-1.64959	
2632	-1.65077	
2633	-1.65212	
2634	-1.65673	
2635	-1.70877	
2636	-1.81317	
2637	-1.81171	
2638	-1.80569	
2639	-1.88671	
2640	-1.92009	
2641	-1.91896	
2642	-1.89954	
2643	-1.95197	
2644	-1.95049	
2645	-1.93775	
2646	-1.93388	
2647	-1.91363	
2648	-1.8935	
2649	-1.8685	
2650	-1.85448	
2651	-1.85156	
2652	-1.84978	
2653	-1.84767	
2654	-1.84416	
2655	-1.84325	
2656	-1.84319	
2657	-1.8437	
2658	-1.85534	
2659	-1.87445	
2660	-1.9242	
2661	-1.93413	
2662	-1.94209	
2663	-1.97935	
2664	-1.96888	
2665	-2.00399	
2666	-2.06638	
2667	-2.0825	
2668	-2.0959	
2669	-2.0619	
2670	-2.07652	
2671	-2.07278	
2672	-2.04863	
2673	-2.01841	
2674	-1.99811	
2675	-1.99358	
2676	-1.99166	
2677	-1.98814	
2678	-1.98882	
2679	-1.98879	
2680	-1.98761	
2681	-1.98804	
2682	-2.00034	
2683	-2.08323	
2684	-2.23937	
2685	-2.2602	
2686	-2.37372	
2687	-2.30217	
2688	-2.35368	
2689	-2.37209	
2690	-2.36076	
2691	-2.405	
2692	-2.41537	
2693	-2.41798	
2694	-2.38909	
2695	-2.33283	
2696	-2.33569	
2697	-2.30701	
2698	-2.28405	
2699	-2.28047	
2700	-2.27524	
2701	-2.27005	
2702	-2.26527	
2703	-2.26385	
2704	-2.26514	
2705	-2.26326	
2706	-2.28753	
2707	-2.33096	
2708	-2.34562	
2709	-2.38969	
2710	-2.46278	
2711	-2.45424	
2712	-2.49017	
2713	-2.49449	
2714	-2.57637	
2715	-2.62613	
2716	-2.63425	
2717	-2.65588	
2718	-2.6496	
2719	-2.63917	
2720	-2.61643	
2721	-2.59775	
2722	-2.55818	
2723	-2.5274	
2724	-2.51115	
2725	-2.5062	
2726	-2.50646	
2727	-2.50862	
2728	-2.51425	
2729	-2.51794	
2730	-2.55093	
2731	-2.68955	
2732	-2.92894	
2733	-2.93074	
2734	-2.99534	
2735	-2.90933	
2736	-3.03401	
2737	-3.0207	
2738	-3.09378	
2739	-3.07988	
2740	-3.08538	
2741	-3.05346	
2742	-3.0387	
2743	-3.058	
2744	-3.06859	
2745	-3.01122	
2746	-2.96407	
2747	-2.94576	
2748	-2.93685	
2749	-2.93399	
2750	-2.93588	
2751	-2.93684	
2752	-2.93584	
2753	-2.93455	
2754	-2.95563	
2755	-3.08493	
2756	-3.33362	
2757	-3.36559	
2758	-6.37525	
2759	-3.40506	
2760	-5.93136	
2761	-3.39387	
2762	-3.46361	
2763	-3.44237	
2764	-3.45591	
2765	-3.42511	
2766	-3.44619	
2767	-3.43653	
2768	-3.42304	
2769	-3.26477	
2770	-3.24729	
2771	-3.24666	
2772	-3.24425	
2773	-3.24626	
2774	-3.24452	
2775	-3.2444	
2776	-3.24479	
2777	-3.2447	
2778	-3.26859	
2779	-3.39944	
2780	-5.98389	
2781	-3.6691	
2782	-6.54949	
2783	-5.92545	
2784	-6.14049	
2785	-3.68285	
2786	-6.01637	
2787	-3.70861	
2788	-3.76438	
2789	-3.7291	
2790	-3.68858	
2791	-3.68782	
2792	-3.67886	
2793	-3.58039	
2794	-3.53631	
2795	-3.52527	
2796	-3.52035	
2797	-3.51017	
2798	-3.50665	
2799	-3.50437	
2800	-3.50537	
2801	-3.50493	
2802	-3.53191	
2803	-3.69573	
2804	-6.17075	
2805	-6.23188	
2806	-6.78831	
2807	-6.17543	
2808	-6.44934	
2809	-6.18451	
2810	-6.45309	
2811	-6.18373	
2812	-6.18803	
2813	-5.93121	
2814	-3.89234	
2815	-3.83476	
2816	-3.82062	
2817	-3.75151	
2818	-3.68974	
2819	-3.67717	
2820	-3.66681	
2821	-3.66049	
2822	-3.65485	
2823	-3.65152	
2824	-3.65376	
2825	-3.6507	
2826	-3.66998	
2827	-3.86144	
2828	-6.40285	
2829	-6.46133	
2830	-6.95199	
2831	-6.30987	
2832	-6.54953	
2833	-6.18844	
2834	-6.56684	
2835	-6.43467	
2836	-6.43616	
2837	-6.1867	
2838	-4.05481	
2839	-3.99094	
2840	-3.95712	
2841	-3.90456	
2842	-3.84979	
2843	-3.83781	
2844	-3.82915	
2845	-3.82052	
2846	-3.81395	
2847	-3.81055	
2848	-3.80487	
2849	-3.8028	
2850	-3.83605	
2851	-3.94711	
2852	-6.32012	
2853	-6.52364	
2854	-6.86426	
2855	-6.40417	
2856	-6.598	
2857	-6.43654	
2858	-6.76712	
2859	-6.57666	
2860	-6.42689	
2861	-6.16864	
2862	-5.88439	
2863	-4.10411	
2864	-4.07527	
2865	-4.05754	
2866	-4.04877	
2867	-4.05277	
2868	-4.03156	
2869	-4.0109	
2870	-3.9859	
2871	-3.96542	
2872	-3.94767	
2873	-3.94521	
2874	-3.94556	
2875	-3.97368	
2876	-4.06011	
2877	-4.2663	
2878	-6.58544	
2879	-6.0883	
2880	-6.31727	
2881	-6.13814	
2882	-6.37903	
2883	-6.04456	
2884	-6.37042	
2885	-6.25059	
2886	-6.0466	
2887	-4.34709	
2888	-4.32501	
2889	-4.25721	
2890	-4.18201	
2891	-4.18671	
2892	-4.17039	
2893	-4.12969	
2894	-4.12256	
2895	-4.11427	
2896	-4.1103	
2897	-4.10663	
2898	-4.11877	
2899	-4.28147	
2900	-6.36582	
2901	-6.51663	
2902	-7.00459	
2903	-6.42115	
2904	-6.66909	
2905	-6.55094	
2906	-6.6618	
2907	-6.57634	
2908	-6.31157	
2909	-6.13289	
2910	-4.46746	
2911	-4.45478	
2912	-4.45238	
2913	-4.33733	
2914	-4.29676	
2915	-4.31011	
2916	-4.27536	
2917	-4.25518	
2918	-4.25253	
2919	-4.248	
2920	-4.25089	
2921	-4.25245	
2922	-4.26107	
2923	-4.28616	
2924	-4.36075	
2925	-4.45199	
2926	-6.2279	
2927	-6.19297	
2928	-6.64944	
2929	-6.37256	
2930	-6.4562	
2931	-6.4015	
2932	-6.33591	
2933	-6.09473	
2934	-4.59437	
2935	-4.57895	
2936	-4.58739	
2937	-4.47025	
2938	-4.44581	
2939	-4.44591	
2940	-4.4017	
2941	-4.38004	
2942	-4.37217	
2943	-4.36885	
2944	-4.37061	
2945	-4.36936	
2946	-4.378	
2947	-4.48567	
2948	-6.37691	
2949	-6.49829	
2950	-6.85481	
2951	-6.29881	
2952	-6.52596	
2953	-6.35906	
2954	-6.62808	
2955	-6.4481	
2956	-6.3656	
2957	-6.2097	
2958	-6.07053	
2959	-5.91948	
2960	-4.66893	
2961	-4.59362	
2962	-4.52756	
2963	-4.53412	
2964	-4.48898	
2965	-4.46713	
2966	-4.46185	
2967	-4.45692	
2968	-4.46056	
2969	-4.46049	
2970	-4.4623	
2971	-4.6461	
2972	-6.47045	
2973	-6.57462	
2974	-6.86954	
2975	-6.40689	
2976	-6.66065	
2977	-6.47447	
2978	-6.70189	
2979	-6.52984	
2980	-6.32407	
2981	-6.22902	
2982	-5.96778	
2983	-4.80916	
2984	-4.72091	
2985	-4.72985	
2986	-4.64117	
2987	-4.57679	
2988	-4.56332	
2989	-4.55216	
2990	-4.55439	
2991	-4.55187	
2992	-4.55521	
2993	-4.55045	
2994	-4.56024	
2995	-4.73254	
2996	-6.39904	
2997	-6.5154	
2998	-6.77346	
2999	-6.39645	
3000	-6.60158	
3001	-6.43919	
3002	-6.67308	
3003	-6.56744	
3004	-6.24772	
3005	-6.22656	
3006	-5.98688	
3007	-4.8464	
3008	-4.81707	
3009	-4.79202	
3010	-4.76889	
3011	-4.76452	
3012	-4.72641	
3013	-4.70258	
3014	-4.69455	
3015	-4.68298	
3016	-4.67871	
3017	-4.6767	
3018	-4.68291	
3019	-4.87125	
3020	-6.42927	
3021	-6.5254	
3022	-6.77208	
3023	-6.41955	
3024	-6.59472	
3025	-6.39288	
3026	-6.60689	
3027	-6.50087	
3028	-6.40235	
3029	-6.29177	
3030	-6.1672	
3031	-6.01213	
3032	-5.9312	
3033	-4.95535	
3034	-4.89551	
3035	-4.91042	
3036	-4.87411	
3037	-4.83082	
3038	-4.81704	
3039	-4.79755	
3040	-4.79598	
3041	-4.7965	
3042	-4.79485	
3043	-4.94807	
3044	-6.38829	
3045	-6.4835	
3046	-6.60538	
3047	-6.35811	
3048	-6.35388	
3049	-6.3199	
3050	-6.48921	
3051	-6.55316	
3052	-6.35273	
3053	-6.26015	
3054	-6.12762	
3055	-6.02861	
3056	-5.903	
3057	-5.02394	
3058	-4.99746	
3059	-4.9972	
3060	-4.9409	
3061	-4.9204	
3062	-4.90895	
3063	-4.89436	
3064	-4.88292	
3065	-4.88378	
3066	-4.88691	
3067	-5.05578	
3068	-6.36038	
3069	-6.44032	
3070	-6.62036	
3071	-6.32361	
3072	-6.47562	
3073	-6.35061	
3074	-6.49285	
3075	-6.42706	
3076	-6.32827	
3077	-6.26595	
3078	-6.16094	
3079	-6.05273	
3080	-5.91245	
3081	-5.08962	
3082	-5.09454	
3083	-5.04857	
3084	-5.01031	
3085	-4.93791	
3086	-4.94272	
3087	-4.93901	
3088	-4.94159	
3089	-4.937	
3090	-4.94268	
3091	-5.13826	
3092	-6.29346	
3093	-6.32169	
3094	-6.33069	
3095	-6.26365	
3096	-6.39102	
3097	-6.29166	
3098	-6.4375	
3099	-6.33124	
3100	-6.28928	
3101	-6.20647	
3102	-6.0544	
3103	-6.06091	
3104	-5.9055	
3105	-5.16045	
3106	-5.13371	
3107	-5.05955	
3108	-5.04098	
3109	-5.03282	
3110	-5.0281	
3111	-5.01558	
3112	-5.02935	
3113	-5.0222	
3114	-5.05368	
3115	-5.20324	
3116	-6.25966	
3117	-6.36826	
3118	-6.51331	
3119	-6.27775	
3120	-6.34901	
3121	-6.30491	
3122	-6.407	
3123	-6.36498	
3124	-6.27908	
3125	-6.11687	
3126	-6.08493	
3127	-5.99361	
3128	-5.28531	
3129	-5.24811	
3130	-5.23831	
3131	-5.21625	
3132	-5.19979	
3133	-5.17576	
3134	-5.16965	
3135	-5.16287	
3136	-5.15362	
3137	-5.14567	
3138	-5.17012	
3139	-5.30917	
3140	-6.28321	
3141	-6.30663	
3142	-6.43753	
3143	-6.16438	
3144	-6.30387	
3145	-6.22587	
3146	-6.30813	
3147	-6.27175	
3148	-6.16677	
3149	-6.14808	
3150	-6.08384	
3151	-6.03597	
3152	-5.97376	
3153	-5.3543	
3154	-5.32893	
3155	-5.30153	
3156	-5.28655	
3157	-5.27098	
3158	-5.26139	
3159	-5.25303	
3160	-5.24907	
3161	-5.24359	
3162	-5.27275	
3163	-5.33425	
3164	-5.99504	
3165	-6.23767	
3166	-6.32667	
3167	-6.15732	
3168	-6.23667	
3169	-6.19295	
3170	-6.24887	
3171	-6.2131	
3172	-6.07994	
3173	-6.07666	
3174	-6.06145	
3175	-5.98458	
3176	-5.95709	
3177	-5.45131	
3178	-5.41083	
3179	-5.38355	
3180	-5.35312	
3181	-5.33819	
3182	-5.32064	
3183	-5.32069	
3184	-5.31551	
3185	-5.31105	
3186	-5.32509	
3187	-5.34722	
3188	-5.35114	
3189	-5.4138	
3190	-6.09275	
3191	-6.05646	
3192	-6.04154	
3193	-6.11628	
3194	-6.10648	
3195	-6.10889	
3196	-6.05351	
3197	-6.01242	
3198	-6.01916	
3199	-5.93905	
3200	-5.88633	
3201	-5.46292	
3202	-5.42291	
3203	-5.40153	
3204	-5.3993	
3205	-5.38811	
3206	-5.38029	
3207	-5.37164	
3208	-5.3694	
3209	-5.36502	
3210	-5.40099	
3211	-5.46707	
3212	-6.14139	
3213	-6.16745	
3214	-6.04987	
3215	-6.06626	
3216	-6.13846	
3217	-6.04991	
3218	-6.09068	
3219	-6.10112	
3220	-6.04418	
3221	-5.97969	
3222	-5.9487	
3223	-5.92137	
3224	-5.8841	
3225	-5.4861	
3226	-5.45958	
3227	-5.43912	
3228	-5.42984	
3229	-5.42266	
3230	-5.40928	
3231	-5.40804	
3232	-5.40435	
3233	-5.39962	
3234	-5.40957	
3235	-5.49699	
3236	-6.10113	
3237	-6.12875	
3238	-6.19848	
3239	-6.04585	
3240	-6.09405	
3241	-6.08908	
3242	-6.11049	
3243	-6.08649	
3244	-6.02728	
3245	-5.99927	
3246	-5.96216	
3247	-5.93579	
3248	-5.90354	
3249	-5.55726	
3250	-5.50715	
3251	-5.4507	
3252	-5.44189	
3253	-5.43582	
3254	-5.43876	
3255	-5.43516	
3256	-5.43627	
3257	-5.43233	
3258	-5.45854	
3259	-5.5358	
3260	-6.08146	
3261	-6.10562	
3262	-6.16188	
3263	-6.02938	
3264	-6.06957	
3265	-6.07288	
3266	-6.08776	
3267	-6.06592	
3268	-6.01775	
3269	-5.99708	
3270	-5.95581	
3271	-5.92625	
3272	-5.90388	
3273	-5.59692	
3274	-5.57622	
3275	-5.56212	
3276	-5.5498	
3277	-5.54001	
3278	-5.52561	
3279	-5.52409	
3280	-5.51996	
3281	-5.51397	
3282	-5.52379	
3283	-5.57756	
3284	-6.05081	
3285	-6.07887	
3286	-6.12471	
3287	-6.00784	
3288	-6.03931	
3289	-6.04608	
3290	-6.05574	
3291	-6.03481	
3292	-5.99494	
3293	-5.97683	
3294	-5.90747	
3295	-5.92138	
3296	-5.65663	
3297	-5.58624	
3298	-5.61436	
3299	-5.60696	
3300	-5.5856	
3301	-5.57852	
3302	-5.55907	
3303	-5.55987	
3304	-5.55331	
3305	-5.5481	
3306	-5.57005	
3307	-5.61141	
3308	-6.0175	
3309	-6.04596	
3310	-6.07933	
3311	-5.98624	
3312	-6.00784	
3313	-6.01537	
3314	-6.02481	
3315	-6.00474	
3316	-5.91839	
3317	-5.5825	
3318	-5.62318	
3319	-5.63364	
3320	-5.61867	
3321	-5.58287	
3322	-5.56138	
3323	-5.56145	
3324	-5.55931	
3325	-5.55671	
3326	-5.55792	
3327	-5.55421	
3328	-5.5537	
3329	-5.5546	
3330	-5.56971	
3331	-5.61335	
3332	-5.96797	
3333	-6.0299	
3334	-6.06657	
3335	-5.96944	
3336	-5.99431	
3337	-6.00379	
3338	-6.00891	
3339	-5.99351	
3340	-5.95383	
3341	-5.93411	
3342	-5.90584	
3343	-5.88905	
3344	-5.69742	
3345	-5.66623	
3346	-5.63504	
3347	-5.63041	
3348	-5.6281	
3349	-5.62413	
3350	-5.61909	
3351	-5.61383	
3352	-5.61006	
3353	-5.60798	
3354	-5.61085	
3355	-5.66308	
3356	-5.98399	
3357	-6.00708	
3358	-6.03419	
3359	-5.95039	
3360	-5.97377	
3361	-5.98456	
3362	-5.98586	
3363	-5.97153	
3364	-5.94144	
3365	-5.92537	
3366	-5.90011	
3367	-5.88626	
3368	-5.72338	
3369	-5.68947	
3370	-5.63349	
3371	-5.62869	
3372	-5.62788	
3373	-5.62883	
3374	-5.62789	
3375	-5.62456	
3376	-5.62333	
3377	-5.62203	
3378	-5.62553	
3379	-5.68169	
3380	-5.97372	
3381	-5.9945	
3382	-6.01614	
3383	-5.94254	
3384	-5.96192	
3385	-5.97283	
3386	-5.97502	
3387	-5.9581	
3388	-5.93772	
3389	-5.92327	
3390	-5.90269	
3391	-5.88555	
3392	-5.74004	
3393	-5.71992	
3394	-5.71495	
3395	-5.71111	
3396	-5.69678	
3397	-5.68545	
3398	-5.6867	
3399	-5.68692	
3400	-5.68499	
3401	-5.6808	
3402	-5.6896	
3403	-5.71097	
3404	-5.9552	
3405	-5.97329	
3406	-5.99038	
3407	-5.93347	
3408	-5.94969	
3409	-5.95776	
3410	-5.95722	
3411	-5.93916	
3412	-5.92639	
3413	-5.91121	
3414	-5.89419	
3415	-5.88476	
3416	-5.76216	
3417	-5.74092	
3418	-5.72858	
3419	-5.72093	
3420	-5.71363	
3421	-5.71088	
3422	-5.70768	
3423	-5.70544	
3424	-5.70221	
3425	-5.69908	
3426	-5.71115	
3427	-5.72995	
3428	-5.94155	
3429	-5.9581	
3430	-5.97423	
3431	-5.92297	
3432	-5.93829	
3433	-5.94494	
3434	-5.94378	
3435	-5.92385	
3436	-5.92269	
3437	-5.90405	
3438	-5.88978	
3439	-5.87838	
3440	-5.77389	
3441	-5.75512	
3442	-5.74797	
3443	-5.7387	
3444	-5.73275	
3445	-5.73096	
3446	-5.72999	
3447	-5.72794	
3448	-5.72556	
3449	-5.72763	
3450	-5.73156	
3451	-5.7508	
3452	-5.93411	
3453	-5.94825	
3454	-5.9616	
3455	-5.91372	
3456	-5.92955	
3457	-5.93387	
3458	-5.93091	
3459	-5.90796	
3460	-5.9109	
3461	-5.89816	
3462	-5.88482	
3463	-5.78839	
3464	-5.7843	
3465	-5.77176	
3466	-5.7568	
3467	-5.75255	
3468	-5.74762	
3469	-5.74548	
3470	-5.74481	
3471	-5.74124	
3472	-5.73954	
3473	-5.7376	
3474	-5.74286	
3475	-5.76684	
3476	-5.92141	
3477	-5.93454	
3478	-5.94649	
3479	-5.9072	
3480	-5.92238	
3481	-5.92402	
3482	-5.92171	
3483	-5.89894	
3484	-5.90364	
3485	-5.89331	
3486	-5.88269	
3487	-5.8099	
3488	-5.79885	
3489	-5.78545	
3490	-5.77887	
3491	-5.76964	
3492	-5.76725	
3493	-5.76508	
3494	-5.76244	
3495	-5.7601	
3496	-5.75913	
3497	-5.75746	
3498	-5.76432	
3499	-5.77768	
3500	-5.91703	
3501	-5.92804	
3502	-5.93745	
3503	-5.90256	
3504	-5.91809	
3505	-5.91783	
3506	-5.91599	
3507	-5.89532	
3508	-5.89965	
3509	-5.88862	
3510	-5.88177	
3511	-5.87869	
3512	-5.81293	
3513	-5.80419	
3514	-5.80019	
3515	-5.79425	
3516	-5.79249	
3517	-5.7873	
3518	-5.78376	
3519	-5.78205	
3520	-5.77934	
3521	-5.77967	
3522	-5.78343	
3523	-5.79468	
3524	-5.91217	
3525	-5.91034	
3526	-5.92581	
3527	-5.89905	
3528	-5.91379	
3529	-5.90736	
3530	-5.90625	
3531	-5.89217	
3532	-5.89547	
3533	-5.89002	
3534	-5.88316	
3535	-5.8318	
3536	-5.8209	
3537	-5.81258	
3538	-5.81071	
3539	-5.80584	
3540	-5.80558	
3541	-5.80203	
3542	-5.7993	
3543	-5.79839	
3544	-5.79676	
3545	-5.79647	
3546	-5.79765	
3547	-5.80902	
3548	-5.90189	
3549	-5.9075	
3550	-5.91498	
3551	-5.8944	
3552	-5.90669	
3553	-5.90442	
3554	-5.90302	
3555	-5.89025	
3556	-5.89033	
3557	-5.88636	
3558	-5.8805	
3559	-5.83746	
3560	-5.82945	
3561	-5.82187	
3562	-5.81782	
3563	-5.81182	
3564	-5.81042	
3565	-5.80942	
