#Output values file generated by Xhydro
2
ReportTime
point# 1
1	0.140831	
2	0.140656	
3	0.140527	
4	0.140308	
5	0.140177	
6	0.140063	
7	0.139951	
8	0.139841	
9	0.139733	
10	0.139639	
11	0.139553	
12	0.139498	
13	0.139447	
14	0.139402	
15	0.139359	
16	0.139319	
17	0.139275	
18	0.139235	
19	0.139195	
20	0.139146	
21	0.139084	
22	0.139	
23	0.138863	
24	0.138618	
25	0.138377	
26	0.138093	
27	0.137862	
28	0.137629	
29	0.137317	
30	0.137012	
31	0.136795	
32	0.136636	
33	0.13649	
34	0.136353	
35	0.136233	
36	0.136166	
37	0.136101	
38	0.136039	
39	0.135985	
40	0.135929	
41	0.13588	
42	0.135831	
43	0.135784	
44	0.135714	
45	0.135625	
46	0.135521	
47	0.135399	
48	0.135265	
49	0.135108	
50	0.134917	
51	0.134741	
52	0.134589	
53	0.134435	
54	0.134289	
55	0.134153	
56	0.134033	
57	0.133916	
58	0.133802	
59	0.133699	
60	0.133636	
61	0.133584	
62	0.13354	
63	0.133498	
64	0.133459	
65	0.13342	
66	0.133379	
67	0.133334	
68	0.133267	
69	0.133176	
70	0.13304	
71	0.13279	
72	0.132534	
73	0.132233	
74	0.131894	
75	0.131438	
76	0.131156	
77	0.130895	
78	0.130684	
79	0.130537	
80	0.130415	
81	0.13029	
82	0.130162	
83	0.130047	
84	0.130012	
85	0.129977	
86	0.129946	
87	0.129916	
88	0.129887	
89	0.129851	
90	0.129811	
91	0.129775	
92	0.129703	
93	0.129614	
94	0.129502	
95	0.129363	
96	0.1292	
97	0.128947	
98	0.128495	
99	0.128003	
100	0.127607	
101	0.127233	
102	0.126951	
103	0.126772	
104	0.126616	
105	0.126477	
106	0.126348	
107	0.12623	
108	0.12616	
109	0.126104	
110	0.126056	
111	0.126012	
112	0.125973	
113	0.125932	
114	0.125894	
115	0.125853	
116	0.125783	
117	0.125701	
118	0.125612	
119	0.125515	
120	0.125399	
121	0.12516	
122	0.124831	
123	0.124474	
124	0.124147	
125	0.123892	
126	0.123727	
127	0.123593	
128	0.123476	
129	0.123369	
130	0.123264	
131	0.123169	
132	0.123107	
133	0.123052	
134	0.123006	
135	0.122961	
136	0.122923	
137	0.122886	
138	0.12285	
139	0.122812	
140	0.122761	
141	0.122698	
142	0.122611	
143	0.122508	
144	0.122408	
145	0.12231	
146	0.1222	
147	0.122075	
148	0.121911	
149	0.12177	
150	0.12155	
151	0.121386	
152	0.121242	
153	0.121103	
154	0.120968	
155	0.12085	
156	0.120779	
157	0.120712	
158	0.120652	
159	0.12059	
160	0.120529	
161	0.120466	
162	0.120403	
163	0.120343	
164	0.120268	
165	0.120181	
166	0.120026	
167	0.119799	
168	0.119493	
169	0.11909	
170	0.118803	
171	0.118488	
172	0.118048	
173	0.117646	
174	0.117365	
175	0.117184	
176	0.117067	
177	0.116973	
178	0.116884	
179	0.116806	
180	0.116753	
181	0.116701	
182	0.116654	
183	0.116606	
184	0.116557	
185	0.116511	
186	0.116466	
187	0.116421	
188	0.116372	
189	0.116314	
190	0.116211	
191	0.115993	
192	0.115743	
193	0.115445	
194	0.115203	
195	0.114991	
196	0.114795	
197	0.114619	
198	0.114473	
199	0.114337	
200	0.114209	
201	0.114089	
202	0.113978	
203	0.113877	
204	0.113817	
205	0.113764	
206	0.113719	
207	0.113678	
208	0.113639	
209	0.113603	
210	0.113568	
211	0.113532	
212	0.11348	
213	0.113413	
214	0.113327	
215	0.113221	
216	0.113095	
217	0.112967	
218	0.11284	
219	0.112679	
220	0.112505	
221	0.112352	
222	0.112202	
223	0.112073	
224	0.111955	
225	0.111843	
226	0.111736	
227	0.111643	
228	0.111583	
229	0.111529	
230	0.111482	
231	0.111438	
232	0.111395	
233	0.111353	
234	0.111311	
235	0.111268	
236	0.111211	
237	0.111139	
238	0.111046	
239	0.110929	
240	0.110785	
241	0.110632	
242	0.110468	
243	0.110308	
244	0.110152	
245	0.110013	
246	0.109877	
247	0.109748	
248	0.10964	
249	0.109539	
250	0.10944	
251	0.109352	
252	0.109298	
253	0.109252	
254	0.10921	
255	0.109171	
256	0.109135	
257	0.109098	
258	0.10906	
259	0.109023	
260	0.108973	
261	0.108902	
262	0.108818	
263	0.108688	
264	0.108483	
265	0.108241	
266	0.108055	
267	0.107794	
268	0.107409	
269	0.107053	
270	0.10676	
271	0.106548	
272	0.106422	
273	0.10632	
274	0.106225	
275	0.106139	
276	0.106089	
277	0.106044	
278	0.106006	
279	0.105967	
280	0.105928	
281	0.105887	
282	0.105848	
283	0.10581	
284	0.105757	
285	0.105683	
286	0.105518	
287	0.105254	
288	0.104946	
289	0.104608	
290	0.104254	
291	0.103957	
292	0.103733	
293	0.103535	
294	0.103384	
295	0.103259	
296	0.103138	
297	0.10302	
298	0.102912	
299	0.102816	
300	0.102755	
301	0.102708	
302	0.102667	
303	0.102626	
304	0.102588	
305	0.102552	
306	0.10251	
307	0.102447	
308	0.102364	
309	0.102256	
310	0.102116	
311	0.101902	
312	0.101664	
313	0.101377	
314	0.101027	
315	0.100703	
316	0.100401	
317	0.100177	
318	0.100019	
319	0.0998777	
320	0.0997471	
321	0.099625	
322	0.0995143	
323	0.0994414	
324	0.0993814	
325	0.0993324	
326	0.0992882	
327	0.0992488	
328	0.0992114	
329	0.0991739	
330	0.099136	
331	0.0990749	
332	0.0989903	
333	0.098863	
334	0.0987342	
335	0.0985827	
336	0.140727	
337	0.140419	
338	0.140122	
339	0.139894	
340	0.139724	
341	0.139619	
342	0.139525	
343	0.139435	
344	0.139344	
345	0.139259	
346	0.139183	
347	0.139129	
348	0.139081	
349	0.13904	
350	0.138997	
351	0.138961	
352	0.138926	
353	0.138891	
354	0.138857	
355	0.138807	
356	0.138739	
357	0.138649	
358	0.13854	
359	0.138408	
360	0.138226	
361	0.138018	
362	0.137841	
363	0.137618	
364	0.137484	
365	0.137379	
366	0.137288	
367	0.137202	
368	0.137108	
369	0.137012	
370	0.136922	
371	0.136863	
372	0.136812	
373	0.136769	
374	0.136731	
375	0.136696	
376	0.136663	
377	0.13663	
378	0.136593	
379	0.136534	
380	0.136445	
381	0.136319	
382	0.136205	
383	0.136004	
384	0.135815	
385	0.1357	
386	0.135535	
387	0.13536	
388	0.135141	
389	0.13503	
390	0.134951	
391	0.134863	
392	0.134787	
393	0.134709	
394	0.134637	
395	0.134589	
396	0.134542	
397	0.134502	
398	0.134463	
399	0.134427	
400	0.134392	
401	0.134357	
402	0.13432	
403	0.134262	
404	0.134172	
405	0.13404	
406	0.133773	
407	0.133334	
408	0.132963	
409	0.132647	
410	0.13219	
411	0.131764	
412	0.131428	
413	0.131129	
414	0.130968	
415	0.130814	
416	0.130669	
417	0.130528	
418	0.130398	
419	0.130312	
420	0.130235	
421	0.130167	
422	0.130103	
423	0.130042	
424	0.129982	
425	0.129922	
426	0.129862	
427	0.129788	
428	0.12969	
429	0.129519	
430	0.129214	
431	0.128836	
432	0.128489	
433	0.128121	
434	0.127797	
435	0.127498	
436	0.127195	
437	0.126978	
438	0.126831	
439	0.126681	
440	0.126539	
441	0.12641	
442	0.126287	
443	0.126211	
444	0.12615	
445	0.1261	
446	0.126055	
447	0.126013	
448	0.125974	
449	0.125938	
450	0.125897	
451	0.125835	
452	0.125747	
453	0.125593	
454	0.125441	
455	0.125184	
456	0.124976	
457	0.124843	
458	0.124726	
459	0.12462	
460	0.124516	
461	0.124408	
462	0.124305	
463	0.124212	
464	0.12412	
465	0.124036	
466	0.123962	
467	0.12391	
468	0.123861	
469	0.123816	
470	0.123772	
471	0.123729	
472	0.123688	
473	0.123647	
474	0.123602	
475	0.123546	
476	0.123473	
477	0.123211	
478	0.12301	
479	0.122724	
480	0.122298	
481	0.121882	
482	0.121535	
483	0.121124	
484	0.120699	
485	0.120412	
486	0.120235	
487	0.120091	
488	0.119946	
489	0.119803	
490	0.119668	
491	0.119586	
492	0.119512	
493	0.119448	
494	0.119385	
495	0.119323	
496	0.119262	
497	0.119204	
498	0.119146	
499	0.119069	
500	0.118966	
501	0.118762	
502	0.118475	
503	0.1182	
504	0.117837	
505	0.117426	
506	0.117067	
507	0.116816	
508	0.116633	
509	0.116476	
510	0.116325	
511	0.116178	
512	0.116035	
513	0.115897	
514	0.115773	
515	0.115681	
516	0.115601	
517	0.115528	
518	0.115464	
519	0.115403	
520	0.115351	
521	0.115304	
522	0.115257	
523	0.115183	
524	0.115084	
525	0.114918	
526	0.114776	
527	0.114471	
528	0.114222	
529	0.113938	
530	0.113664	
531	0.113387	
532	0.11311	
533	0.112878	
534	0.112712	
535	0.112592	
536	0.112486	
537	0.112388	
538	0.112301	
539	0.112242	
540	0.112192	
541	0.112147	
542	0.112101	
543	0.112056	
544	0.112014	
545	0.111971	
546	0.111927	
547	0.111873	
548	0.111798	
549	0.111683	
550	0.111527	
551	0.111325	
552	0.111024	
553	0.110702	
554	0.110355	
555	0.109923	
556	0.10954	
557	0.109249	
558	0.109032	
559	0.108887	
560	0.108755	
561	0.108632	
562	0.108519	
563	0.108443	
564	0.108379	
565	0.108325	
566	0.108278	
567	0.108232	
568	0.108185	
569	0.108137	
570	0.108089	
571	0.108019	
572	0.107925	
573	0.107771	
574	0.107619	
575	0.107468	
576	0.107114	
577	0.106793	
578	0.106504	
579	0.106231	
580	0.105936	
581	0.105641	
582	0.105419	
583	0.105263	
584	0.105125	
585	0.104996	
586	0.104882	
587	0.104803	
588	0.104739	
589	0.104677	
590	0.10462	
591	0.104564	
592	0.104509	
593	0.104454	
594	0.104401	
595	0.104328	
596	0.104229	
597	0.104066	
598	0.103932	
599	0.103647	
600	0.103292	
601	0.102945	
602	0.102617	
603	0.102351	
604	0.102136	
605	0.101995	
606	0.101847	
607	0.101739	
608	0.101638	
609	0.101539	
610	0.101447	
611	0.101379	
612	0.101325	
613	0.101276	
614	0.101228	
615	0.101183	
616	0.101142	
617	0.1011	
618	0.101056	
619	0.100989	
620	0.100904	
621	0.100703	
622	0.100385	
623	0.100026	
624	0.0998044	
625	0.0995667	
626	0.0992067	
627	0.0988806	
628	0.0986191	
629	0.0983611	
630	0.0981559	
631	0.0980223	
632	0.0979166	
633	0.0978256	
634	0.0977461	
635	0.0976823	
636	0.0976276	
637	0.0975782	
638	0.0975328	
639	0.097488	
640	0.0974428	
641	0.0973988	
642	0.097351	
643	0.0972865	
644	0.0972051	
645	0.0970829	
646	0.0968397	
647	0.0965202	
648	0.0961184	
649	0.0957133	
650	0.09538	
651	0.0951134	
652	0.0949008	
653	0.0947131	
654	0.0945652	
655	0.0944483	
656	0.0943549	
657	0.0942701	
658	0.0941928	
659	0.0941342	
660	0.0940865	
661	0.0940435	
662	0.094004	
663	0.0939669	
664	0.0939307	
665	0.0938947	
666	0.0938561	
667	0.0938023	
668	0.093742	
669	0.0936748	
670	0.0936005	
671	0.0935141	
672	0.0934	
673	0.0932035	
674	0.0929853	
675	0.0927639	
676	0.0925734	
677	0.0923627	
678	0.0922226	
679	0.0921293	
680	0.0920463	
681	0.0919693	
682	0.0918981	
683	0.0918483	
684	0.0918045	
685	0.0917649	
686	0.0917269	
687	0.091689	
688	0.0916514	
689	0.0916128	
690	0.0915723	
691	0.0915168	
692	0.0914454	
693	0.0913653	
694	0.0912664	
695	0.0910936	
696	0.0908978	
697	0.0907149	
698	0.0905292	
699	0.0903372	
700	0.0901637	
701	0.0900314	
702	0.0899347	
703	0.0898608	
704	0.0897965	
705	0.0897338	
706	0.0896802	
707	0.0896365	
708	0.0895959	
709	0.0895614	
710	0.0895299	
711	0.0894992	
712	0.0894682	
713	0.0894357	
714	0.089402	
715	0.0893513	
716	0.0892865	
717	0.0892202	
718	0.0891459	
719	0.0890623	
720	0.0889839	
721	0.0887859	
722	0.0886599	
723	0.0885709	
724	0.088495	
725	0.0884319	
726	0.0883732	
727	0.0883201	
728	0.0882626	
729	0.0882088	
730	0.0881558	
731	0.0881189	
732	0.0880867	
733	0.0880578	
734	0.0880307	
735	0.0880051	
736	0.0879802	
737	0.0879558	
738	0.0879274	
739	0.0878811	
740	0.0878157	
741	0.0876645	
742	0.0874391	
743	0.0871995	
744	0.0868886	
745	0.0866456	
746	0.0864497	
747	0.086284	
748	0.0861162	
749	0.0859886	
750	0.0858803	
751	0.0857944	
752	0.0857203	
753	0.0856551	
754	0.0855959	
755	0.0855484	
756	0.0855071	
757	0.0854703	
758	0.0854368	
759	0.0854071	
760	0.0853787	
761	0.0853519	
762	0.0853233	
763	0.0852816	
764	0.0852256	
765	0.0851556	
766	0.0850014	
767	0.084779	
768	0.0844896	
769	0.084201	
770	0.0839952	
771	0.0837607	
772	0.0834951	
773	0.0832986	
774	0.0831267	
775	0.0829893	
776	0.0829034	
777	0.0828479	
778	0.0828074	
779	0.0827734	
780	0.0827425	
781	0.0827139	
782	0.0826867	
783	0.0826597	
784	0.0826342	
785	0.0826076	
786	0.0825806	
787	0.0825464	
788	0.082489	
789	0.0823849	
790	0.082173	
791	0.0819355	
792	0.0816354	
793	0.0813426	
794	0.0811233	
795	0.0809329	
796	0.0807737	
797	0.0806309	
798	0.0805277	
799	0.0804481	
800	0.0803798	
801	0.080321	
802	0.0802714	
803	0.0802451	
804	0.0802222	
805	0.0801988	
806	0.0801767	
807	0.0801557	
808	0.0801337	
809	0.0801106	
810	0.0800883	
811	0.080057	
812	0.080015	
813	0.0799023	
814	0.0796267	
815	0.0793049	
816	0.0790126	
817	0.0788241	
818	0.0785332	
819	0.0783764	
820	0.0782588	
821	0.0781615	
822	0.0780234	
823	0.0779401	
824	0.0778706	
825	0.077804	
826	0.0777448	
827	0.0777014	
828	0.0776652	
829	0.0776305	
830	0.0775989	
831	0.0775681	
832	0.0775385	
833	0.0775097	
834	0.07748	
835	0.0774355	
836	0.0773629	
837	0.0772235	
838	0.0770643	
839	0.0769578	
840	0.0768456	
841	0.0766656	
842	0.0763941	
843	0.0761129	
844	0.076	
845	0.0758823	
846	0.0757563	
847	0.075677	
848	0.075612	
849	0.0755494	
850	0.0754948	
851	0.075458	
852	0.0754266	
853	0.0753982	
854	0.0753727	
855	0.0753471	
856	0.0753233	
857	0.075298	
858	0.0752711	
859	0.0752298	
860	0.0751718	
861	0.0750969	
862	0.0748996	
863	0.0746604	
864	0.074351	
865	0.0740429	
866	0.0737253	
867	0.0734249	
868	0.0731865	
869	0.0730114	
870	0.0728633	
871	0.072765	
872	0.0726986	
873	0.0726368	
874	0.0725797	
875	0.0725513	
876	0.07253	
877	0.0725111	
878	0.0724927	
879	0.0724767	
880	0.0724584	
881	0.0724414	
882	0.0724232	
883	0.0723961	
884	0.0723512	
885	0.0722762	
886	0.0721855	
887	0.0721158	
888	0.0719957	
889	0.0718198	
890	0.0715651	
891	0.0713487	
892	0.0711332	
893	0.0709582	
894	0.0708266	
895	0.0707374	
896	0.0706874	
897	0.0706386	
898	0.0705978	
899	0.0705703	
900	0.0705454	
901	0.0705202	
902	0.0704968	
903	0.0704759	
904	0.0704558	
905	0.0704356	
906	0.0704141	
907	0.0703786	
908	0.0703321	
909	0.0702172	
910	0.0700001	
911	0.0697558	
912	0.0695767	
913	0.0694325	
914	0.0692685	
915	0.0691253	
916	0.0690077	
917	0.0689222	
918	0.0688652	
919	0.0688169	
920	0.0687761	
921	0.0687416	
922	0.0687092	
923	0.0686831	
924	0.0686609	
925	0.0686412	
926	0.0686225	
927	0.0686052	
928	0.0685884	
929	0.0685728	
930	0.0685558	
931	0.0685244	
932	0.0684882	
933	0.0684426	
934	0.0683641	
935	0.0681966	
936	0.0680045	
937	0.0677515	
938	0.0674406	
939	0.0672544	
940	0.0670342	
941	0.0668546	
942	0.0667379	
943	0.0666708	
944	0.0666236	
945	0.0665851	
946	0.0665487	
947	0.0665251	
948	0.0665044	
949	0.0664882	
950	0.0664727	
951	0.0664573	
952	0.0664421	
953	0.0664285	
954	0.0664137	
955	0.137582	
956	0.13749	
957	0.137356	
958	0.137091	
959	0.136727	
960	0.136177	
961	0.135725	
962	0.135351	
963	0.135028	
964	0.134875	
965	0.134737	
966	0.134617	
967	0.13452	
968	0.134431	
969	0.134346	
970	0.134273	
971	0.134207	
972	0.134149	
973	0.134094	
974	0.134036	
975	0.133983	
976	0.133935	
977	0.133887	
978	0.133837	
979	0.133776	
980	0.133697	
981	0.133462	
982	0.133164	
983	0.132956	
984	0.132745	
985	0.132383	
986	0.131937	
987	0.131558	
988	0.131282	
989	0.130977	
990	0.130747	
991	0.130592	
992	0.130449	
993	0.130307	
994	0.130176	
995	0.130091	
996	0.130012	
997	0.129938	
998	0.129864	
999	0.129791	
1000	0.129718	
1001	0.129646	
1002	0.129569	
1003	0.129467	
1004	0.129344	
1005	0.129197	
1006	0.129042	
1007	0.128851	
1008	0.128625	
1009	0.128473	
1010	0.128353	
1011	0.128151	
1012	0.127843	
1013	0.127615	
1014	0.127496	
1015	0.127402	
1016	0.12731	
1017	0.127206	
1018	0.127097	
1019	0.127023	
1020	0.126949	
1021	0.126884	
1022	0.126819	
1023	0.126755	
1024	0.12669	
1025	0.126625	
1026	0.126556	
1027	0.126468	
1028	0.126301	
1029	0.125924	
1030	0.125475	
1031	0.125048	
1032	0.124458	
1033	0.123965	
1034	0.123522	
1035	0.122904	
1036	0.122376	
1037	0.122	
1038	0.121768	
1039	0.121598	
1040	0.121471	
1041	0.121361	
1042	0.121259	
1043	0.121174	
1044	0.121101	
1045	0.121035	
1046	0.120974	
1047	0.120913	
1048	0.120856	
1049	0.120803	
1050	0.120749	
1051	0.120668	
1052	0.120565	
1053	0.120382	
1054	0.120185	
1055	0.120011	
1056	0.119792	
1057	0.119494	
1058	0.119208	
1059	0.118987	
1060	0.118748	
1061	0.118549	
1062	0.118388	
1063	0.118253	
1064	0.118145	
1065	0.118052	
1066	0.117967	
1067	0.117899	
1068	0.117839	
1069	0.117784	
1070	0.117722	
1071	0.117668	
1072	0.117618	
1073	0.117566	
1074	0.117517	
1075	0.117438	
1076	0.11735	
1077	0.117269	
1078	0.117156	
1079	0.117045	
1080	0.116921	
1081	0.116794	
1082	0.116669	
1083	0.116546	
1084	0.116447	
1085	0.116355	
1086	0.116257	
1087	0.11618	
1088	0.116111	
1089	0.116033	
1090	0.115961	
1091	0.115908	
1092	0.115857	
1093	0.115809	
1094	0.115765	
1095	0.115723	
1096	0.115682	
1097	0.115636	
1098	0.115595	
1099	0.115536	
1100	0.115441	
1101	0.115281	
1102	0.115146	
1103	0.114957	
1104	0.114656	
1105	0.11444	
1106	0.114213	
1107	0.113996	
1108	0.113806	
1109	0.113581	
1110	0.113426	
1111	0.1133	
1112	0.113181	
1113	0.113065	
1114	0.112961	
1115	0.112879	
1116	0.112805	
1117	0.112741	
1118	0.112681	
1119	0.112625	
1120	0.112569	
1121	0.112518	
1122	0.112465	
1123	0.112387	
1124	0.11228	
1125	0.112138	
1126	0.111914	
1127	0.111665	
1128	0.111391	
1129	0.111104	
1130	0.11092	
1131	0.110706	
1132	0.110533	
1133	0.110388	
1134	0.110177	
1135	0.110045	
1136	0.109948	
1137	0.109848	
1138	0.109758	
1139	0.109689	
1140	0.109628	
1141	0.109569	
1142	0.109511	
1143	0.109457	
1144	0.109404	
1145	0.109351	
1146	0.109299	
1147	0.109228	
1148	0.109107	
1149	0.108849	
1150	0.108477	
1151	0.108103	
1152	0.107642	
1153	0.107038	
1154	0.106448	
1155	0.105888	
1156	0.105457	
1157	0.105141	
1158	0.104882	
1159	0.104678	
1160	0.10452	
1161	0.104393	
1162	0.104291	
1163	0.104186	
1164	0.104077	
1165	0.103981	
1166	0.103904	
1167	0.103839	
1168	0.103781	
1169	0.103729	
1170	0.103675	
1171	0.103602	
1172	0.103512	
1173	0.103416	
1174	0.103316	
1175	0.103209	
1176	0.103028	
1177	0.102755	
1178	0.102478	
1179	0.102233	
1180	0.102033	
1181	0.101847	
1182	0.101664	
1183	0.101522	
1184	0.101416	
1185	0.101324	
1186	0.10124	
1187	0.101176	
1188	0.101118	
1189	0.101065	
1190	0.101016	
1191	0.100968	
1192	0.100921	
1193	0.100877	
1194	0.100829	
1195	0.100761	
1196	0.100582	
1197	0.100214	
1198	0.0998775	
1199	0.0995538	
1200	0.0991913	
1201	0.0988096	
1202	0.0984415	
1203	0.0980539	
1204	0.0978228	
1205	0.0976711	
1206	0.097516	
1207	0.0974097	
1208	0.0973274	
1209	0.0972564	
1210	0.0971874	
1211	0.0971329	
1212	0.0970815	
1213	0.0970371	
1214	0.096998	
1215	0.0969591	
1216	0.0969182	
1217	0.0968765	
1218	0.096834	
1219	0.0967756	
1220	0.0966194	
1221	0.0962674	
1222	0.0959328	
1223	0.0955988	
1224	0.0951581	
1225	0.0946204	
1226	0.094075	
1227	0.0935813	
1228	0.0931633	
1229	0.0928178	
1230	0.0925531	
1231	0.0923599	
1232	0.0922287	
1233	0.0921289	
1234	0.0920428	
1235	0.0919758	
1236	0.091918	
1237	0.0918656	
1238	0.0918177	
1239	0.0917713	
1240	0.0917249	
1241	0.0916808	
1242	0.0916375	
1243	0.0915659	
1244	0.0914668	
1245	0.0913513	
1246	0.0911787	
1247	0.0909929	
1248	0.0908196	
1249	0.0906965	
1250	0.0904937	
1251	0.0903017	
1252	0.0902167	
1253	0.0901529	
1254	0.0900941	
1255	0.0900322	
1256	0.089975	
1257	0.0899172	
1258	0.0898674	
1259	0.0898267	
1260	0.0897896	
1261	0.0897555	
1262	0.0897225	
1263	0.0896926	
1264	0.0896638	
1265	0.0896352	
1266	0.0896049	
1267	0.0895547	
1268	0.0894627	
1269	0.0893155	
1270	0.0890621	
1271	0.0887788	
1272	0.0885288	
1273	0.0882061	
1274	0.0878447	
1275	0.0875504	
1276	0.0872853	
1277	0.087089	
1278	0.0869132	
1279	0.0867745	
1280	0.0866806	
1281	0.086602	
1282	0.0865295	
1283	0.0864758	
1284	0.0864303	
1285	0.0863904	
1286	0.0863518	
1287	0.0863124	
1288	0.0862734	
1289	0.0862348	
1290	0.0861966	
1291	0.0861382	
1292	0.0859916	
1293	0.0857279	
1294	0.0854776	
1295	0.085215	
1296	0.0847878	
1297	0.0843779	
1298	0.0838381	
1299	0.0833565	
1300	0.0829983	
1301	0.0827305	
1302	0.0825254	
1303	0.0823601	
1304	0.0822301	
1305	0.0821247	
1306	0.0820433	
1307	0.0820001	
1308	0.0819625	
1309	0.0819286	
1310	0.0818934	
1311	0.0818593	
1312	0.0818252	
1313	0.0817947	
1314	0.0817625	
1315	0.0817123	
1316	0.0816497	
1317	0.0815795	
1318	0.0814998	
1319	0.0813306	
1320	0.0810587	
1321	0.0807385	
1322	0.0805024	
1323	0.0802816	
1324	0.0800798	
1325	0.0798763	
1326	0.0796843	
1327	0.0795401	
1328	0.0794744	
1329	0.0794185	
1330	0.0793662	
1331	0.0793277	
1332	0.079295	
1333	0.0792645	
1334	0.0792369	
1335	0.0792105	
1336	0.0791849	
1337	0.0791618	
1338	0.0791361	
1339	0.0790847	
1340	0.0790146	
1341	0.0788964	
1342	0.0787223	
1343	0.0785206	
1344	0.0782936	
1345	0.0780251	
1346	0.0777971	
1347	0.0775825	
1348	0.0774039	
1349	0.0772758	
1350	0.0771903	
1351	0.0771264	
1352	0.0770827	
1353	0.0770502	
1354	0.0770208	
1355	0.0769952	
1356	0.0769704	
1357	0.076946	
1358	0.076921	
1359	0.0768989	
1360	0.0768784	
1361	0.0768587	
1362	0.0768355	
1363	0.0767983	
1364	0.076698	
1365	0.0765268	
1366	0.076298	
1367	0.0761365	
1368	0.0759615	
1369	0.0757893	
1370	0.0756111	
1371	0.0754231	
1372	0.075188	
1373	0.0750666	
1374	0.0749703	
1375	0.0749073	
1376	0.0748596	
1377	0.0748176	
1378	0.0747829	
1379	0.0747544	
1380	0.0747282	
1381	0.0747045	
1382	0.0746816	
1383	0.0746607	
1384	0.0746402	
1385	0.074622	
1386	0.0746028	
1387	0.0745709	
1388	0.074531	
1389	0.0744762	
1390	0.0743765	
1391	0.0742881	
1392	0.0741555	
1393	0.073996	
1394	0.0738415	
1395	0.0736508	
1396	0.0734943	
1397	0.0733755	
1398	0.0733059	
1399	0.0732515	
1400	0.0732086	
1401	0.0731709	
1402	0.0731401	
1403	0.0731145	
1404	0.0730891	
1405	0.0730674	
1406	0.0730467	
1407	0.0730254	
1408	0.0730026	
1409	0.0729803	
1410	0.0729564	
1411	0.0729151	
1412	0.0728672	
1413	0.072796	
1414	0.0726754	
1415	0.0725374	
1416	0.0723676	
1417	0.0722196	
1418	0.0720818	
1419	0.0719494	
1420	0.0718333	
1421	0.0717019	
1422	0.0715786	
1423	0.0714778	
1424	0.0714077	
1425	0.0713518	
1426	0.0713077	
1427	0.0712727	
1428	0.0712434	
1429	0.0712145	
1430	0.0711867	
1431	0.0711594	
1432	0.0711332	
1433	0.0711083	
1434	0.0710828	
1435	0.0710407	
1436	0.0709881	
1437	0.0709166	
1438	0.0707858	
1439	0.070636	
1440	0.0704772	
1441	0.0703021	
1442	0.0700917	
1443	0.0699013	
1444	0.0697534	
1445	0.0695996	
1446	0.069465	
1447	0.0693849	
1448	0.0693239	
1449	0.0692773	
1450	0.0692362	
1451	0.0692047	
1452	0.0691776	
1453	0.0691512	
1454	0.0691252	
1455	0.0691023	
1456	0.0690788	
1457	0.0690557	
1458	0.0690329	
1459	0.0689927	
1460	0.0689402	
1461	0.0688549	
1462	0.0687215	
1463	0.0685305	
1464	0.0681982	
1465	0.0678512	
1466	0.0675052	
1467	0.0672892	
1468	0.0670808	
1469	0.0669276	
1470	0.0667938	
1471	0.0666927	
1472	0.0666426	
1473	0.0666071	
1474	0.0665792	
1475	0.0665565	
1476	0.0665355	
1477	0.0665175	
1478	0.0664988	
1479	0.0664793	
1480	0.0664614	
1481	0.0664447	
1482	0.0664241	
1483	0.0663882	
1484	0.0663436	
1485	0.0662916	
1486	0.0662357	
1487	0.0661339	
1488	0.0659238	
1489	0.0656925	
1490	0.0653986	
1491	0.0652131	
1492	0.0650549	
1493	0.0648656	
1494	0.0647344	
1495	0.0646363	
1496	0.0645636	
1497	0.0645044	
1498	0.0644637	
1499	0.0644293	
1500	0.0643975	
1501	0.0643688	
1502	0.0643391	
1503	0.064309	
1504	0.0642791	
1505	0.0642505	
1506	0.0642179	
1507	0.0641682	
1508	0.0640987	
1509	0.0639913	
1510	0.0637573	
1511	0.0635571	
1512	0.0633148	
1513	0.0630719	
1514	0.0627967	
1515	0.0626202	
1516	0.0624787	
1517	0.0623588	
1518	0.0622649	
1519	0.0621931	
1520	0.0621386	
1521	0.0620963	
1522	0.0620668	
1523	0.0620426	
1524	0.0620217	
1525	0.0620032	
1526	0.0619858	
1527	0.0619688	
1528	0.0619524	
1529	0.0619365	
1530	0.0619195	
1531	0.0618911	
1532	0.061853	
1533	0.0617971	
1534	0.061705	
1535	0.0615998	
1536	0.0614711	
1537	0.0613176	
1538	0.0611751	
1539	0.0610271	
1540	0.060876	
1541	0.060746	
1542	0.0606381	
1543	0.0605382	
1544	0.0604903	
1545	0.0604613	
1546	0.060438	
1547	0.0604198	
1548	0.0604026	
1549	0.0603857	
1550	0.0603686	
1551	0.0603512	
1552	0.0603326	
1553	0.060314	
1554	0.0602943	
1555	0.0602653	
1556	0.0601147	
1557	0.0598841	
1558	0.0596792	
1559	0.0595098	
1560	0.0592259	
1561	0.058904	
1562	0.0586487	
1563	0.0584562	
1564	0.0582701	
1565	0.0581099	
1566	0.0579782	
1567	0.0578837	
1568	0.057812	
1569	0.057778	
1570	0.0577555	
1571	0.0577353	
1572	0.0577161	
1573	0.057698	
1574	0.0576813	
1575	0.0576656	
1576	0.0576509	
1577	0.0576364	
1578	0.0576218	
1579	0.0575973	
1580	0.0574459	
1581	0.0572313	
1582	0.0570244	
1583	0.0568541	
1584	0.0565528	
1585	0.056183	
1586	0.055837	
1587	0.0555759	
1588	0.0553449	
1589	0.0551111	
1590	0.0549297	
1591	0.054798	
1592	0.0546947	
1593	0.0546319	
1594	0.0545857	
1595	0.0545494	
1596	0.0545185	
1597	0.0544916	
1598	0.0544663	
1599	0.054445	
1600	0.0544258	
1601	0.0544085	
1602	0.0543895	
1603	0.0543547	
1604	0.0542308	
1605	0.0540919	
1606	0.053948	
1607	0.0537604	
1608	0.0534858	
1609	0.05314	
1610	0.0528911	
1611	0.0526795	
1612	0.0524551	
1613	0.0523049	
1614	0.0522082	
1615	0.0521082	
1616	0.052039	
1617	0.0519876	
1618	0.0519529	
1619	0.0519235	
1620	0.0518964	
1621	0.0518725	
1622	0.0518466	
1623	0.0518276	
1624	0.0518098	
1625	0.0517933	
1626	0.051775	
1627	0.0517418	
1628	0.0516409	
1629	0.0515132	
1630	0.0513948	
1631	0.0512534	
1632	0.0509958	
1633	0.0508341	
1634	0.0507274	
1635	0.0505313	
1636	0.0503975	
1637	0.0502627	
1638	0.0501662	
1639	0.0500945	
1640	0.0500355	
1641	0.0499899	
1642	0.0499571	
1643	0.0499353	
1644	0.0499164	
1645	0.0498985	
1646	0.0498816	
1647	0.0498655	
1648	0.0498492	
1649	0.0498325	
1650	0.0498134	
1651	0.0497849	
1652	0.0497503	
1653	0.0497048	
1654	0.0496578	
1655	0.0495855	
1656	0.049506	
1657	0.0494211	
1658	0.0493288	
1659	0.0492193	
1660	0.0491279	
1661	0.0490479	
1662	0.0489755	
1663	0.0489285	
1664	0.0488894	
1665	0.0488614	
1666	0.0488392	
1667	0.0488221	
1668	0.0488078	
1669	0.0487934	
1670	0.0487797	
1671	0.0487654	
1672	0.0487495	
1673	0.0487347	
1674	0.0487182	
1675	0.0486857	
1676	0.0485419	
1677	0.0483477	
1678	0.0481628	
1679	0.0480232	
1680	0.0477702	
1681	0.0474974	
1682	0.0472318	
1683	0.0470464	
1684	0.0468709	
1685	0.0467066	
1686	0.0465863	
1687	0.0465037	
1688	0.0464417	
1689	0.0463952	
1690	0.0463645	
1691	0.0463397	
1692	0.0463179	
1693	0.046299	
1694	0.0462822	
1695	0.0462672	
1696	0.0462529	
1697	0.0462401	
1698	0.0462253	
1699	0.0461924	
1700	0.0460436	
1701	0.0458583	
1702	0.0456752	
1703	0.0455296	
1704	0.0452667	
1705	0.044948	
1706	0.0446563	
1707	0.0444717	
1708	0.0442781	
1709	0.0441003	
1710	0.0439775	
1711	0.0438913	
1712	0.0438234	
1713	0.0437769	
1714	0.043746	
1715	0.0437209	
1716	0.0436998	
1717	0.0436825	
1718	0.0436668	
1719	0.0436527	
1720	0.0436396	
1721	0.0436276	
1722	0.0436141	
1723	0.0435829	
1724	0.0434383	
1725	0.0432588	
1726	0.0430754	
1727	0.0429342	
1728	0.0426757	
1729	0.0423678	
1730	0.0420797	
1731	0.0418862	
1732	0.0416727	
1733	0.0414871	
1734	0.0413442	
1735	0.0412404	
1736	0.0411648	
1737	0.0411144	
1738	0.0410796	
1739	0.0410519	
1740	0.0410279	
1741	0.0410073	
1742	0.0409887	
1743	0.0409728	
1744	0.0409582	
1745	0.040945	
1746	0.0409298	
1747	0.0408973	
1748	0.0407584	
1749	0.0405871	
1750	0.0404108	
1751	0.0402576	
1752	0.0399927	
1753	0.0397332	
1754	0.0394967	
1755	0.11024	
1756	0.109637	
1757	0.109143	
1758	0.1087	
1759	0.108329	
1760	0.108041	
1761	0.107844	
1762	0.107653	
1763	0.10756	
1764	0.107509	
1765	0.107464	
1766	0.107422	
1767	0.10738	
1768	0.107333	
1769	0.107288	
1770	0.107236	
1771	0.107174	
1772	0.107054	
1773	0.106832	
1774	0.106588	
1775	0.106406	
1776	0.106187	
1777	0.10593	
1778	0.105696	
1779	0.105526	
1780	0.105409	
1781	0.105291	
1782	0.105193	
1783	0.105118	
1784	0.105041	
1785	0.104973	
1786	0.104917	
1787	0.104862	
1788	0.104814	
1789	0.104771	
1790	0.10473	
1791	0.104686	
1792	0.104641	
1793	0.104598	
1794	0.104552	
1795	0.104489	
1796	0.104392	
1797	0.10424	
1798	0.103922	
1799	0.103642	
1800	0.103346	
1801	0.103069	
1802	0.102801	
1803	0.102544	
1804	0.102182	
1805	0.101921	
1806	0.101785	
1807	0.10165	
1808	0.101548	
1809	0.101461	
1810	0.101385	
1811	0.101326	
1812	0.101272	
1813	0.101221	
1814	0.10117	
1815	0.10112	
1816	0.101067	
1817	0.101019	
1818	0.100965	
1819	0.100895	
1820	0.100802	
1821	0.100556	
1822	0.100231	
1823	0.0998743	
1824	0.0994664	
1825	0.0990473	
1826	0.0985471	
1827	0.0980312	
1828	0.0974949	
1829	0.0971575	
1830	0.0969032	
1831	0.0966955	
1832	0.096531	
1833	0.0964167	
1834	0.0963329	
1835	0.0962628	
1836	0.0962017	
1837	0.0961454	
1838	0.0960927	
1839	0.0960411	
1840	0.0959922	
1841	0.0959423	
1842	0.0958898	
1843	0.0958076	
1844	0.0955896	
1845	0.0952192	
1846	0.0948008	
1847	0.0944492	
1848	0.0939866	
1849	0.0934416	
1850	0.0929095	
1851	0.0924804	
1852	0.0920132	
1853	0.0916603	
1854	0.0913913	
1855	0.0911826	
1856	0.0910033	
1857	0.0908811	
1858	0.0907967	
1859	0.0907259	
1860	0.0906656	
1861	0.090611	
1862	0.0905618	
1863	0.090514	
1864	0.0904681	
1865	0.0904242	
1866	0.0903757	
1867	0.0902958	
1868	0.0901797	
1869	0.0900399	
1870	0.0898649	
1871	0.0896875	
1872	0.0895037	
1873	0.0892702	
1874	0.089051	
1875	0.0888964	
1876	0.0888006	
1877	0.08867	
1878	0.0885483	
1879	0.0884522	
1880	0.0883725	
1881	0.0883132	
1882	0.0882673	
1883	0.0882227	
1884	0.0881801	
1885	0.0881422	
1886	0.088104	
1887	0.0880664	
1888	0.0880297	
1889	0.0879924	
1890	0.0879544	
1891	0.0879055	
1892	0.0878402	
1893	0.0877688	
1894	0.0876975	
1895	0.0876054	
1896	0.0875121	
1897	0.0874215	
1898	0.0873107	
1899	0.0872086	
1900	0.0870957	
1901	0.0870157	
1902	0.0869552	
1903	0.0869053	
1904	0.0868657	
1905	0.0868251	
1906	0.0867904	
1907	0.0867596	
1908	0.0867312	
1909	0.0867035	
1910	0.0866771	
1911	0.0866521	
1912	0.0866269	
1913	0.0866009	
1914	0.0865741	
1915	0.0865283	
1916	0.0863394	
1917	0.0860339	
1918	0.085694	
1919	0.0854497	
1920	0.0850967	
1921	0.0846774	
1922	0.0842191	
1923	0.0838465	
1924	0.0835556	
1925	0.083225	
1926	0.0829991	
1927	0.0828283	
1928	0.0827007	
1929	0.0826183	
1930	0.0825615	
1931	0.0825129	
1932	0.0824707	
1933	0.0824325	
1934	0.0823965	
1935	0.0823641	
1936	0.0823315	
1937	0.0822993	
1938	0.0822626	
1939	0.0821772	
1940	0.0818974	
1941	0.0815786	
1942	0.0812206	
1943	0.0809212	
1944	0.0805073	
1945	0.079867	
1946	0.0793453	
1947	0.0791277	
1948	0.0788139	
1949	0.0785236	
1950	0.0783327	
1951	0.078178	
1952	0.0780588	
1953	0.0779753	
1954	0.0779178	
1955	0.077869	
1956	0.0778251	
1957	0.0777843	
1958	0.0777487	
1959	0.0777144	
1960	0.0776821	
1961	0.077651	
1962	0.0776155	
1963	0.0775465	
1964	0.0773456	
1965	0.0771189	
1966	0.0768515	
1967	0.076585	
1968	0.076232	
1969	0.0757334	
1970	0.0751596	
1971	0.0748414	
1972	0.0745903	
1973	0.0743572	
1974	0.0741913	
1975	0.0740705	
1976	0.073955	
1977	0.0738822	
1978	0.0738328	
1979	0.0737914	
1980	0.0737558	
1981	0.0737229	
1982	0.0736923	
1983	0.0736635	
1984	0.0736364	
1985	0.0736096	
1986	0.0735834	
1987	0.0735244	
1988	0.0732951	
1989	0.0730154	
1990	0.07268	
1991	0.0724001	
1992	0.0720163	
1993	0.0714385	
1994	0.0708433	
1995	0.0703096	
1996	0.0699036	
1997	0.0695506	
1998	0.0692919	
1999	0.0690976	
2000	0.0689374	
2001	0.0688359	
2002	0.0687686	
2003	0.068715	
2004	0.0686711	
2005	0.0686313	
2006	0.0685929	
2007	0.0685597	
2008	0.068529	
2009	0.0685003	
2010	0.0684671	
2011	0.0683863	
2012	0.0681342	
2013	0.0678587	
2014	0.0675181	
2015	0.0672333	
2016	0.0668451	
2017	0.0662921	
2018	0.0657054	
2019	0.0651836	
2020	0.064786	
2021	0.0644311	
2022	0.0641686	
2023	0.0639774	
2024	0.0638301	
2025	0.0637311	
2026	0.0636633	
2027	0.0636057	
2028	0.0635562	
2029	0.0635135	
2030	0.0634769	
2031	0.063444	
2032	0.0634148	
2033	0.0633875	
2034	0.0633569	
2035	0.0632662	
2036	0.0630385	
2037	0.0627765	
2038	0.0624523	
2039	0.0621814	
2040	0.061817	
2041	0.0613015	
2042	0.060744	
2043	0.0602448	
2044	0.0598261	
2045	0.0594761	
2046	0.0592067	
2047	0.0590004	
2048	0.0588398	
2049	0.0587424	
2050	0.0586857	
2051	0.0586453	
2052	0.0586098	
2053	0.0585734	
2054	0.0585348	
2055	0.0584939	
2056	0.0584561	
2057	0.0584209	
2058	0.058369	
2059	0.0582493	
2060	0.0580633	
2061	0.0578021	
2062	0.0574644	
2063	0.0572048	
2064	0.0568613	
2065	0.0563626	
2066	0.0558251	
2067	0.0554758	
2068	0.0552077	
2069	0.0549301	
2070	0.0547272	
2071	0.0545957	
2072	0.0544889	
2073	0.0544026	
2074	0.0543378	
2075	0.0542831	
2076	0.0542337	
2077	0.0541883	
2078	0.0541478	
2079	0.0541128	
2080	0.0540799	
2081	0.0540491	
2082	0.0540158	
2083	0.0539568	
2084	0.0538617	
2085	0.0536723	
2086	0.0534592	
2087	0.0532724	
2088	0.0530767	
2089	0.0528735	
2090	0.052658	
2091	0.0524718	
2092	0.0523381	
2093	0.0521983	
2094	0.0520814	
2095	0.0519739	
2096	0.0518808	
2097	0.0518099	
2098	0.0517611	
2099	0.0517133	
2100	0.0516626	
2101	0.0516229	
2102	0.0515912	
2103	0.0515638	
2104	0.0515403	
2105	0.0515189	
2106	0.0514963	
2107	0.0514202	
2108	0.0512144	
2109	0.0510103	
2110	0.0507527	
2111	0.0505541	
2112	0.0503373	
2113	0.0501314	
2114	0.0499036	
2115	0.0497198	
2116	0.0495599	
2117	0.0494263	
2118	0.0493004	
2119	0.0491909	
2120	0.0491081	
2121	0.0490479	
2122	0.0490022	
2123	0.0489621	
2124	0.0489242	
2125	0.0488908	
2126	0.0488598	
2127	0.0488337	
2128	0.0488103	
2129	0.0487887	
2130	0.0487651	
2131	0.0486866	
2132	0.0485339	
2133	0.0484059	
2134	0.0481894	
2135	0.0480147	
2136	0.0478148	
2137	0.0476193	
2138	0.0473948	
2139	0.0471865	
2140	0.0470045	
2141	0.0468431	
2142	0.046704	
2143	0.0465776	
2144	0.0464802	
2145	0.0464111	
2146	0.0463664	
2147	0.046329	
2148	0.0462957	
2149	0.0462665	
2150	0.0462408	
2151	0.0462175	
2152	0.0461962	
2153	0.0461765	
2154	0.046155	
2155	0.04608	
2156	0.0458987	
2157	0.0457147	
2158	0.0454778	
2159	0.0452931	
2160	0.0450751	
2161	0.0448764	
2162	0.044633	
2163	0.0444155	
2164	0.0442071	
2165	0.0440364	
2166	0.0438805	
2167	0.0437515	
2168	0.043657	
2169	0.0435823	
2170	0.0435176	
2171	0.0434506	
2172	0.0433888	
2173	0.0433418	
2174	0.0433049	
2175	0.0432749	
2176	0.0432507	
2177	0.0432288	
2178	0.0432044	
2179	0.0431211	
2180	0.0429428	
2181	0.0427514	
2182	0.0425122	
2183	0.0423242	
2184	0.0421028	
2185	0.0418934	
2186	0.0416437	
2187	0.0414196	
2188	0.0412063	
2189	0.0410212	
2190	0.0408839	
2191	0.0407485	
2192	0.040645	
2193	0.0405725	
2194	0.0405219	
2195	0.0404791	
2196	0.0404408	
2197	0.0404069	
2198	0.0403775	
2199	0.0403503	
2200	0.0403267	
2201	0.0403054	
2202	0.0402814	
2203	0.0402039	
2204	0.040024	
2205	0.0398302	
2206	0.0395953	
2207	0.0394115	
2208	0.039204	
2209	0.0390371	
2210	0.0388452	
2211	0.0386674	
2212	0.0385033	
2213	0.0383839	
2214	0.0382928	
2215	0.0382136	
2216	0.0381264	
2217	0.0380489	
2218	0.0380022	
2219	0.0379698	
2220	0.037938	
2221	0.0379075	
2222	0.0378809	
2223	0.0378574	
2224	0.0378358	
2225	0.0378158	
2226	0.0377915	
2227	0.0377148	
2228	0.0375425	
2229	0.0373641	
2230	0.0371839	
2231	0.0369967	
2232	0.0367958	
2233	0.0366119	
2234	0.0363971	
2235	0.0362017	
2236	0.0360142	
2237	0.0358826	
2238	0.035803	
2239	0.0357413	
2240	0.0356917	
2241	0.0356482	
2242	0.0356205	
2243	0.0355949	
2244	0.035573	
2245	0.0355539	
2246	0.0355367	
2247	0.0355197	
2248	0.0355037	
2249	0.0354907	
2250	0.035476	
2251	0.035456	
2252	0.0354328	
2253	0.0353942	
2254	0.0353492	
2255	0.0352686	
2256	0.0351893	
2257	0.0350734	
2258	0.0349952	
2259	0.0349634	
2260	0.0349222	
2261	0.03486	
2262	0.0347956	
2263	0.0347461	
2264	0.0347068	
2265	0.0346753	
2266	0.0346511	
2267	0.0346304	
2268	0.0346137	
2269	0.0345987	
2270	0.0345833	
2271	0.0345696	
2272	0.0345557	
2273	0.0345433	
2274	0.0345277	
2275	0.0344922	
2276	0.0343836	
2277	0.0342257	
2278	0.0340574	
2279	0.0339529	
2280	0.0338167	
2281	0.0336785	
2282	0.0335499	
2283	0.0334219	
2284	0.0333012	
2285	0.0331946	
2286	0.0330981	
2287	0.0330044	
2288	0.0329256	
2289	0.0328782	
2290	0.0328447	
2291	0.0328165	
2292	0.0327919	
2293	0.0327704	
2294	0.0327509	
2295	0.0327334	
2296	0.0327178	
2297	0.0327024	
2298	0.0326831	
2299	0.0326101	
2300	0.0324749	
2301	0.0323325	
2302	0.0321285	
2303	0.0319867	
2304	0.0318304	
2305	0.0317043	
2306	0.0315801	
2307	0.0314449	
2308	0.0313169	
2309	0.031199	
2310	0.031087	
2311	0.0309917	
2312	0.0309247	
2313	0.0308625	
2314	0.0308276	
2315	0.0307985	
2316	0.0307726	
2317	0.0307492	
2318	0.0307292	
2319	0.0307118	
2320	0.0306954	
2321	0.0306797	
2322	0.0306572	
2323	0.0305874	
2324	0.0304587	
2325	0.0303124	
2326	0.0301256	
2327	0.0299814	
2328	0.0298041	
2329	0.0296501	
2330	0.0294709	
2331	0.0293277	
2332	0.0292603	
2333	0.0292142	
2334	0.0291738	
2335	0.029139	
2336	0.0291071	
2337	0.0290798	
2338	0.0290614	
2339	0.0290458	
2340	0.0290323	
2341	0.02902	
2342	0.0290086	
2343	0.0289971	
2344	0.0289867	
2345	0.0289769	
2346	0.0289627	
2347	0.0289217	
2348	0.0288233	
2349	0.0286892	
2350	0.0285663	
2351	0.0284301	
2352	0.0282956	
2353	0.0281869	
2354	0.0280601	
2355	0.0279514	
2356	0.0278414	
2357	0.0277486	
2358	0.0276616	
2359	0.0275791	
2360	0.0275112	
2361	0.0274719	
2362	0.0274461	
2363	0.0274232	
2364	0.027403	
2365	0.0273853	
2366	0.0273694	
2367	0.0273549	
2368	0.027342	
2369	0.0273299	
2370	0.0273161	
2371	0.0272702	
2372	0.0271541	
2373	0.0270396	
2374	0.026885	
2375	0.0267594	
2376	0.0266324	
2377	0.0265104	
2378	0.0263849	
2379	0.0262425	
2380	0.0260938	
2381	0.0259736	
2382	0.0258777	
2383	0.0257903	
2384	0.0257237	
2385	0.0256817	
2386	0.0256502	
2387	0.0256179	
2388	0.0255918	
2389	0.0255739	
2390	0.025559	
2391	0.0255463	
2392	0.0255351	
2393	0.0255245	
2394	0.0255135	
2395	0.025465	
2396	0.0253355	
2397	0.0251999	
2398	0.0250169	
2399	0.024871	
2400	0.0247044	
2401	0.0245485	
2402	0.0243816	
2403	0.0242382	
2404	0.0241123	
2405	0.0240392	
2406	0.0239327	
2407	0.0238454	
2408	0.0237835	
2409	0.0237375	
2410	0.0237012	
2411	0.0236706	
2412	0.0236477	
2413	0.0236271	
2414	0.0236065	
2415	0.0235876	
2416	0.0235698	
2417	0.0235531	
2418	0.0235341	
2419	0.0234809	
2420	0.0234188	
2421	0.0233617	
2422	0.0232878	
2423	0.0232138	
2424	0.0231287	
2425	0.0230289	
2426	0.0229256	
2427	0.0228541	
2428	0.0228017	
2429	0.0227656	
2430	0.0227283	
2431	0.0226859	
2432	0.0226517	
2433	0.0226264	
2434	0.0226061	
2435	0.0225845	
2436	0.0225601	
2437	0.0225372	
2438	0.0225133	
2439	0.0224914	
2440	0.0224707	
2441	0.022453	
2442	0.0224331	
2443	0.022395	
2444	0.0222818	
2445	0.0221995	
2446	0.0220763	
2447	0.0219571	
2448	0.0218782	
2449	0.0218048	
2450	0.0217195	
2451	0.0216493	
2452	0.0215921	
2453	0.0215493	
2454	0.0215047	
2455	0.0214721	
2456	0.0214458	
2457	0.0214233	
2458	0.021407	
2459	0.0213914	
2460	0.0213794	
2461	0.0213673	
2462	0.0213556	
2463	0.0213434	
2464	0.0213312	
2465	0.0213193	
2466	0.0213056	
2467	0.0212865	
2468	0.0212487	
2469	0.0211839	
2470	0.0210691	
2471	0.0210011	
2472	0.0209364	
2473	0.0208878	
2474	0.0208364	
2475	0.0207784	
2476	0.020707	
2477	0.0206459	
2478	0.0205932	
2479	0.0205468	
2480	0.020501	
2481	0.0204776	
2482	0.0204588	
2483	0.0204432	
2484	0.0204308	
2485	0.020419	
2486	0.0204072	
2487	0.0203962	
2488	0.0203858	
2489	0.0203758	
2490	0.020361	
2491	0.0203149	
2492	0.020194	
2493	0.0200904	
2494	0.0199394	
2495	0.0198266	
2496	0.0197053	
2497	0.0195996	
2498	0.0194994	
2499	0.0193945	
2500	0.0193013	
2501	0.0192293	
2502	0.019165	
2503	0.0190982	
2504	0.0190429	
2505	0.0190095	
2506	0.0189873	
2507	0.0189671	
2508	0.0189514	
2509	0.0189391	
2510	0.0189272	
2511	0.0189161	
2512	0.0189067	
2513	0.0188978	
2514	0.018883	
2515	0.0188309	
2516	0.0187165	
2517	0.0186041	
2518	0.018456	
2519	0.0183416	
2520	0.0182165	
2521	0.0180947	
2522	0.0179926	
2523	0.0178966	
2524	0.0178093	
2525	0.0177511	
2526	0.0176969	
2527	0.0176535	
2528	0.0176251	
2529	0.0176098	
2530	0.0175986	
2531	0.0175896	
2532	0.0175815	
2533	0.0175746	
2534	0.0175685	
2535	0.0175629	
2536	0.017558	
2537	0.0175534	
2538	0.0175448	
2539	0.0175331	
2540	0.0175198	
2541	0.0175059	
2542	0.0174895	
2543	0.0174733	
2544	0.0174529	
2545	0.0174242	
2546	0.0173994	
2547	0.0173814	
2548	0.017365	
2549	0.0173477	
2550	0.0173303	
2551	0.0173137	
2552	0.0173	
2553	0.0172909	
2554	0.0172843	
2555	0.0172777	
2556	0.0172715	
2557	0.0172659	
2558	0.0172611	
2559	0.0172562	
2560	0.0172522	
2561	0.0172481	
2562	0.0172396	
2563	0.0172236	
2564	0.0171686	
2565	0.0170986	
2566	0.0169751	
2567	0.0168821	
2568	0.0167878	
2569	0.0166964	
2570	0.016604	
2571	0.0165153	
2572	0.0164395	
2573	0.016369	
2574	0.0163116	
2575	0.0162568	
2576	0.0162123	
2577	0.0161772	
2578	0.0161558	
2579	0.0161389	
2580	0.0161244	
2581	0.0161125	
2582	0.0161011	
2583	0.0160912	
2584	0.0160817	
2585	0.0160732	
2586	0.0160589	
2587	0.0160347	
2588	0.0159867	
2589	0.0159266	
2590	0.0158588	
2591	0.0158021	
2592	0.0157567	
2593	0.0157115	
2594	0.015669	
2595	0.0156302	
2596	0.0155861	
2597	0.0155405	
2598	0.0155012	
2599	0.0154691	
2600	0.0154449	
2601	0.0154332	
2602	0.0154242	
2603	0.0154162	
2604	0.0154088	
2605	0.0154018	
2606	0.0153954	
2607	0.0153893	
2608	0.0153837	
2609	0.0153783	
2610	0.0153683	
2611	0.015354	
2612	0.0153302	
2613	0.0152999	
2614	0.0152682	
2615	0.0152315	
2616	0.0151922	
2617	0.0151568	
2618	0.0151155	
2619	0.0150729	
2620	0.0150381	
2621	0.0150102	
2622	0.014989	
2623	0.0149659	
2624	0.0149422	
2625	0.014926	
2626	0.0149157	
2627	0.0149098	
2628	0.0149052	
2629	0.0149	
2630	0.0148946	
2631	0.0148908	
2632	0.0148869	
2633	0.0148825	
2634	0.0148764	
2635	0.0148472	
2636	0.0147739	
2637	0.0147066	
2638	0.014647	
2639	0.0145569	
2640	0.0144596	
2641	0.0143703	
2642	0.014296	
2643	0.0142058	
2644	0.0141233	
2645	0.0140524	
2646	0.0139885	
2647	0.0139378	
2648	0.013899	
2649	0.0138733	
2650	0.0138551	
2651	0.0138394	
2652	0.0138257	
2653	0.0138138	
2654	0.0138042	
2655	0.0137957	
2656	0.0137878	
2657	0.0137803	
2658	0.0137687	
2659	0.0137503	
2660	0.0137136	
2661	0.0136758	
2662	0.0136378	
2663	0.0135883	
2664	0.0135466	
2665	0.0134948	
2666	0.0134235	
2667	0.013352	
2668	0.0132813	
2669	0.0132288	
2670	0.0131752	
2671	0.0131272	
2672	0.0130918	
2673	0.0130701	
2674	0.0130575	
2675	0.0130475	
2676	0.013039	
2677	0.0130324	
2678	0.013026	
2679	0.0130202	
2680	0.0130152	
2681	0.0130105	
2682	0.0130016	
2683	0.0129637	
2684	0.0128743	
2685	0.0127855	
2686	0.0126664	
2687	0.0125813	
2688	0.0124868	
2689	0.0123946	
2690	0.012314	
2691	0.0122267	
2692	0.0121437	
2693	0.0120672	
2694	0.012006	
2695	0.0119669	
2696	0.0119301	
2697	0.0119049	
2698	0.0118886	
2699	0.0118748	
2700	0.0118635	
2701	0.0118548	
2702	0.0118481	
2703	0.0118424	
2704	0.0118368	
2705	0.0118321	
2706	0.0118206	
2707	0.0117972	
2708	0.0117713	
2709	0.0117347	
2710	0.0116803	
2711	0.0116329	
2712	0.0115795	
2713	0.0115294	
2714	0.0114614	
2715	0.011386	
2716	0.0113153	
2717	0.0112451	
2718	0.0111828	
2719	0.0111285	
2720	0.0110845	
2721	0.0110489	
2722	0.0110262	
2723	0.011013	
2724	0.011005	
2725	0.0109988	
2726	0.0109931	
2727	0.0109872	
2728	0.0109804	
2729	0.0109733	
2730	0.0109584	
2731	0.0109109	
2732	0.0108117	
2733	0.0107213	
2734	0.010625	
2735	0.0105563	
2736	0.0104672	
2737	0.0103891	
2738	0.0103033	
2739	0.0102281	
2740	0.0101586	
2741	0.0101014	
2742	0.010052	
2743	0.0100032	
2744	0.00995651	
2745	0.00992443	
2746	0.00990375	
2747	0.00988813	
2748	0.00987539	
2749	0.00986417	
2750	0.00985345	
2751	0.00984338	
2752	0.00983426	
2753	0.00982608	
2754	0.00981463	
2755	0.00978067	
2756	0.0097064	
2757	0.00963349	
2758	0.00963346	
2759	0.00956067	
2760	0.00956065	
2761	0.00949614	
2762	0.0094264	
2763	0.00936607	
2764	0.0093089	
2765	0.00926117	
2766	0.00921431	
2767	0.00917271	
2768	0.00913642	
2769	0.00912587	
2770	0.00911864	
2771	0.00911203	
2772	0.00910624	
2773	0.00910058	
2774	0.00909557	
2775	0.00909094	
2776	0.00908658	
2777	0.00908254	
2778	0.00907534	
2779	0.00905004	
2780	0.00905003	
2781	0.00898989	
2782	0.00898987	
2783	0.00898986	
2784	0.00898984	
2785	0.00893303	
2786	0.00893302	
2787	0.00887767	
2788	0.00881995	
2789	0.00877142	
2790	0.00873179	
2791	0.00869536	
2792	0.00866283	
2793	0.0086446	
2794	0.00863301	
2795	0.00862357	
2796	0.00861537	
2797	0.00860896	
2798	0.00860341	
2799	0.00859852	
2800	0.00859383	
2801	0.00858952	
2802	0.00858227	
2803	0.00855627	
2804	0.00855626	
2805	0.00855625	
2806	0.00855624	
2807	0.00855622	
2808	0.00855621	
2809	0.0085562	
2810	0.00855619	
2811	0.00855618	
2812	0.00855617	
2813	0.00855616	
2814	0.00850986	
2815	0.00847357	
2816	0.0084416	
2817	0.00841956	
2818	0.00840586	
2819	0.00839449	
2820	0.00838503	
2821	0.00837689	
2822	0.00836991	
2823	0.00836376	
2824	0.00835777	
2825	0.0083525	
2826	0.0083455	
2827	0.00831863	
2828	0.00831862	
2829	0.00831861	
2830	0.00831859	
2831	0.00831858	
2832	0.00831857	
2833	0.00831856	
2834	0.00831855	
2835	0.00831855	
2836	0.00831854	
2837	0.00831853	
2838	0.00827388	
2839	0.00823904	
2840	0.00821015	
2841	0.00818853	
2842	0.00817384	
2843	0.00816132	
2844	0.00815049	
2845	0.00814122	
2846	0.0081332	
2847	0.00812603	
2848	0.00811987	
2849	0.00811431	
2850	0.00810587	
2851	0.00808733	
2852	0.00808732	
2853	0.00808731	
2854	0.0080873	
2855	0.00808729	
2856	0.00808728	
2857	0.00808727	
2858	0.00808726	
2859	0.00808725	
2860	0.00808725	
2861	0.00808724	
2862	0.00808724	
2863	0.0080553	
2864	0.0080283	
2865	0.00800481	
2866	0.00798372	
2867	0.00796371	
2868	0.00794693	
2869	0.00793309	
2870	0.00792237	
2871	0.00791414	
2872	0.007908	
2873	0.00790245	
2874	0.00789722	
2875	0.00788983	
2876	0.00787539	
2877	0.00784443	
2878	0.00784442	
2879	0.00784441	
2880	0.0078444	
2881	0.0078444	
2882	0.00784439	
2883	0.00784438	
2884	0.00784437	
2885	0.00784436	
2886	0.00784436	
2887	0.00780895	
2888	0.00777786	
2889	0.00775436	
2890	0.00773846	
2891	0.0077232	
2892	0.00771021	
2893	0.00770127	
2894	0.00769344	
2895	0.00768674	
2896	0.00768075	
2897	0.00767541	
2898	0.00766943	
2899	0.00765115	
2900	0.00765115	
2901	0.00765114	
2902	0.00765113	
2903	0.00765112	
2904	0.00765111	
2905	0.00765111	
2906	0.0076511	
2907	0.00765109	
2908	0.00765108	
2909	0.00765108	
2910	0.00761997	
2911	0.00759192	
2912	0.00756593	
2913	0.00755001	
2914	0.00753803	
2915	0.00752581	
2916	0.00751684	
2917	0.00750985	
2918	0.00750347	
2919	0.00749778	
2920	0.00749221	
2921	0.00748685	
2922	0.00748117	
2923	0.00747404	
2924	0.00746205	
2925	0.00744445	
2926	0.00744444	
2927	0.00744444	
2928	0.00744443	
2929	0.00744442	
2930	0.00744441	
2931	0.00744441	
2932	0.0074444	
2933	0.0074444	
2934	0.00741822	
2935	0.00739478	
2936	0.00737227	
2937	0.00735887	
2938	0.00734789	
2939	0.00733753	
2940	0.00733067	
2941	0.00732562	
2942	0.00732137	
2943	0.00731756	
2944	0.00731385	
2945	0.00731042	
2946	0.00730662	
2947	0.00729606	
2948	0.00729605	
2949	0.00729605	
2950	0.00729604	
2951	0.00729604	
2952	0.00729603	
2953	0.00729602	
2954	0.00729602	
2955	0.00729601	
2956	0.00729601	
2957	0.007296	
2958	0.007296	
2959	0.007296	
2960	0.00727447	
2961	0.00725894	
2962	0.00724845	
2963	0.00723815	
2964	0.00723123	
2965	0.00722605	
2966	0.00722148	
2967	0.00721746	
2968	0.00721343	
2969	0.00720962	
2970	0.0072059	
2971	0.00719119	
2972	0.00719119	
2973	0.00719118	
2974	0.00719118	
2975	0.00719117	
2976	0.00719116	
2977	0.00719116	
2978	0.00719115	
2979	0.00719115	
2980	0.00719114	
2981	0.00719114	
2982	0.00719114	
2983	0.00716764	
2984	0.00715073	
2985	0.00713429	
2986	0.00712395	
2987	0.00711793	
2988	0.00711302	
2989	0.00710901	
2990	0.00710508	
2991	0.00710151	
2992	0.00709793	
2993	0.00709481	
2994	0.00709128	
2995	0.00707811	
2996	0.00707811	
2997	0.0070781	
2998	0.00707809	
2999	0.00707809	
3000	0.00707808	
3001	0.00707808	
3002	0.00707807	
3003	0.00707807	
3004	0.00707806	
3005	0.00707806	
3006	0.00707806	
3007	0.00705928	
3008	0.00704321	
3009	0.00702943	
3010	0.00701769	
3011	0.00700682	
3012	0.00699861	
3013	0.00699213	
3014	0.00698642	
3015	0.00698162	
3016	0.00697731	
3017	0.00697332	
3018	0.0069692	
3019	0.00695531	
3020	0.00695531	
3021	0.0069553	
3022	0.00695529	
3023	0.00695529	
3024	0.00695528	
3025	0.00695528	
3026	0.00695527	
3027	0.00695527	
3028	0.00695526	
3029	0.00695526	
3030	0.00695525	
3031	0.00695525	
3032	0.00695525	
3033	0.00693777	
3034	0.00692435	
3035	0.0069109	
3036	0.00690003	
3037	0.00689194	
3038	0.00688497	
3039	0.00687934	
3040	0.00687407	
3041	0.00686905	
3042	0.00686435	
3043	0.00685227	
3044	0.00685226	
3045	0.00685226	
3046	0.00685225	
3047	0.00685225	
3048	0.00685224	
3049	0.00685224	
3050	0.00685223	
3051	0.00685223	
3052	0.00685222	
3053	0.00685222	
3054	0.00685222	
3055	0.00685221	
3056	0.00685221	
3057	0.00683706	
3058	0.00682402	
3059	0.00681169	
3060	0.00680271	
3061	0.00679518	
3062	0.00678857	
3063	0.00678299	
3064	0.00677822	
3065	0.00677365	
3066	0.00676916	
3067	0.00675696	
3068	0.00675695	
3069	0.00675695	
3070	0.00675694	
3071	0.00675694	
3072	0.00675693	
3073	0.00675693	
3074	0.00675692	
3075	0.00675692	
3076	0.00675692	
3077	0.00675691	
3078	0.00675691	
3079	0.00675691	
3080	0.00675691	
3081	0.00674379	
3082	0.00673113	
3083	0.00672123	
3084	0.00671357	
3085	0.00670959	
3086	0.00670558	
3087	0.00670193	
3088	0.00669833	
3089	0.00669511	
3090	0.00669179	
3091	0.00667987	
3092	0.00667987	
3093	0.00667987	
3094	0.00667986	
3095	0.00667986	
3096	0.00667985	
3097	0.00667985	
3098	0.00667984	
3099	0.00667984	
3100	0.00667983	
3101	0.00667983	
3102	0.00667983	
3103	0.00667983	
3104	0.00667982	
3105	0.00666755	
3106	0.00665707	
3107	0.00665036	
3108	0.00664478	
3109	0.00663982	
3110	0.00663531	
3111	0.00663155	
3112	0.00662737	
3113	0.00662369	
3114	0.00661883	
3115	0.00660782	
3116	0.00660781	
3117	0.00660781	
3118	0.0066078	
3119	0.0066078	
3120	0.00660779	
3121	0.00660779	
3122	0.00660778	
3123	0.00660778	
3124	0.00660777	
3125	0.00660777	
3126	0.00660777	
3127	0.00660777	
3128	0.00659387	
3129	0.00658224	
3130	0.00657159	
3131	0.00656238	
3132	0.00655428	
3133	0.00654756	
3134	0.00654141	
3135	0.00653582	
3136	0.00653087	
3137	0.00652646	
3138	0.00652127	
3139	0.00651076	
3140	0.00651076	
3141	0.00651075	
3142	0.00651075	
3143	0.00651075	
3144	0.00651074	
3145	0.00651074	
3146	0.00651073	
3147	0.00651073	
3148	0.00651072	
3149	0.00651072	
3150	0.00651072	
3151	0.00651071	
3152	0.00651071	
3153	0.00649894	
3154	0.00648874	
3155	0.0064801	
3156	0.00647245	
3157	0.00646576	
3158	0.00645976	
3159	0.00645434	
3160	0.00644933	
3161	0.00644475	
3162	0.00643927	
3163	0.00643169	
3164	0.00643169	
3165	0.00643169	
3166	0.00643168	
3167	0.00643168	
3168	0.00643168	
3169	0.00643167	
3170	0.00643167	
3171	0.00643166	
3172	0.00643166	
3173	0.00643165	
3174	0.00643165	
3175	0.00643165	
3176	0.00643165	
3177	0.00642005	
3178	0.00641051	
3179	0.00640242	
3180	0.00639583	
3181	0.0063901	
3182	0.00638526	
3183	0.00638064	
3184	0.00637641	
3185	0.00637252	
3186	0.0063683	
3187	0.00636345	
3188	0.00635868	
3189	0.00635187	
3190	0.00635186	
3191	0.00635186	
3192	0.00635186	
3193	0.00635185	
3194	0.00635185	
3195	0.00635185	
3196	0.00635184	
3197	0.00635184	
3198	0.00635184	
3199	0.00635184	
3200	0.00635183	
3201	0.00634358	
3202	0.00633711	
3203	0.00633169	
3204	0.00632659	
3205	0.0063221	
3206	0.00631809	
3207	0.00631455	
3208	0.00631124	
3209	0.00630822	
3210	0.00630407	
3211	0.00629782	
3212	0.00629781	
3213	0.00629781	
3214	0.00629781	
3215	0.0062978	
3216	0.0062978	
3217	0.0062978	
3218	0.00629779	
3219	0.00629779	
3220	0.00629779	
3221	0.00629778	
3222	0.00629778	
3223	0.00629778	
3224	0.00629778	
3225	0.00629114	
3226	0.00628571	
3227	0.00628121	
3228	0.00627722	
3229	0.00627365	
3230	0.00627068	
3231	0.00626788	
3232	0.00626532	
3233	0.00626302	
3234	0.00626049	
3235	0.00625511	
3236	0.00625511	
3237	0.00625511	
3238	0.0062551	
3239	0.0062551	
3240	0.00625509	
3241	0.00625509	
3242	0.00625509	
3243	0.00625508	
3244	0.00625508	
3245	0.00625508	
3246	0.00625508	
3247	0.00625507	
3248	0.00625507	
3249	0.00624792	
3250	0.00624274	
3251	0.00623966	
3252	0.006237	
3253	0.00623465	
3254	0.00623231	
3255	0.00623017	
3256	0.00622809	
3257	0.00622622	
3258	0.00622356	
3259	0.00621848	
3260	0.00621848	
3261	0.00621847	
3262	0.00621847	
3263	0.00621847	
3264	0.00621846	
3265	0.00621846	
3266	0.00621846	
3267	0.00621845	
3268	0.00621845	
3269	0.00621845	
3270	0.00621844	
3271	0.00621844	
3272	0.00621844	
3273	0.00621159	
3274	0.00620569	
3275	0.00620051	
3276	0.00619594	
3277	0.00619188	
3278	0.00618845	
3279	0.0061852	
3280	0.00618222	
3281	0.00617956	
3282	0.00617669	
3283	0.00617223	
3284	0.00617222	
3285	0.00617222	
3286	0.00617222	
3287	0.00617221	
3288	0.00617221	
3289	0.00617221	
3290	0.0061722	
3291	0.0061722	
3292	0.0061722	
3293	0.00617219	
3294	0.00617219	
3295	0.00617219	
3296	0.00616542	
3297	0.00616116	
3298	0.00615618	
3299	0.00615164	
3300	0.00614796	
3301	0.00614464	
3302	0.00614206	
3303	0.00613957	
3304	0.00613737	
3305	0.00613542	
3306	0.00613287	
3307	0.00612915	
3308	0.00612915	
3309	0.00612915	
3310	0.00612914	
3311	0.00612914	
3312	0.00612914	
3313	0.00612913	
3314	0.00612913	
3315	0.00612913	
3316	0.00612912	
3317	0.00612644	
3318	0.00612262	
3319	0.00611863	
3320	0.00611526	
3321	0.00611312	
3322	0.00611171	
3323	0.00611036	
3324	0.00610912	
3325	0.00610801	
3326	0.00610691	
3327	0.00610596	
3328	0.00610507	
3329	0.00610418	
3330	0.00610286	
3331	0.00610028	
3332	0.00610028	
3333	0.00610028	
3334	0.00610028	
3335	0.00610027	
3336	0.00610027	
3337	0.00610026	
3338	0.00610026	
3339	0.00610026	
3340	0.00610025	
3341	0.00610025	
3342	0.00610025	
3343	0.00610025	
3344	0.00609525	
3345	0.00609138	
3346	0.0060886	
3347	0.00608607	
3348	0.0060837	
3349	0.00608155	
3350	0.00607963	
3351	0.00607794	
3352	0.00607643	
3353	0.00607503	
3354	0.00607361	
3355	0.0060707	
3356	0.0060707	
3357	0.00607069	
3358	0.00607069	
3359	0.00607069	
3360	0.00607068	
3361	0.00607068	
3362	0.00607068	
3363	0.00607067	
3364	0.00607067	
3365	0.00607067	
3366	0.00607067	
3367	0.00607066	
3368	0.0060661	
3369	0.0060627	
3370	0.00606108	
3371	0.00605967	
3372	0.00605833	
3373	0.00605701	
3374	0.00605578	
3375	0.00605468	
3376	0.00605367	
3377	0.00605273	
3378	0.00605172	
3379	0.00604912	
3380	0.00604912	
3381	0.00604911	
3382	0.00604911	
3383	0.00604911	
3384	0.0060491	
3385	0.0060491	
3386	0.0060491	
3387	0.0060491	
3388	0.00604909	
3389	0.00604909	
3390	0.00604909	
3391	0.00604909	
3392	0.0060449	
3393	0.00604146	
3394	0.00603829	
3395	0.00603536	
3396	0.00603296	
3397	0.00603097	
3398	0.00602902	
3399	0.00602714	
3400	0.00602538	
3401	0.00602382	
3402	0.00602206	
3403	0.00601976	
3404	0.00601975	
3405	0.00601975	
3406	0.00601975	
3407	0.00601975	
3408	0.00601974	
3409	0.00601974	
3410	0.00601974	
3411	0.00601973	
3412	0.00601973	
3413	0.00601973	
3414	0.00601973	
3415	0.00601972	
3416	0.00601606	
3417	0.00601314	
3418	0.00601069	
3419	0.00600854	
3420	0.00600668	
3421	0.00600496	
3422	0.0060034	
3423	0.00600196	
3424	0.00600067	
3425	0.00599951	
3426	0.00599806	
3427	0.00599614	
3428	0.00599614	
3429	0.00599613	
3430	0.00599613	
3431	0.00599613	
3432	0.00599613	
3433	0.00599612	
3434	0.00599612	
3435	0.00599612	
3436	0.00599611	
3437	0.00599611	
3438	0.00599611	
3439	0.00599611	
3440	0.00599303	
3441	0.0059906	
3442	0.00598845	
3443	0.00598665	
3444	0.00598508	
3445	0.00598361	
3446	0.00598223	
3447	0.00598095	
3448	0.00597979	
3449	0.00597861	
3450	0.00597737	
3451	0.00597565	
3452	0.00597564	
3453	0.00597564	
3454	0.00597564	
3455	0.00597564	
3456	0.00597563	
3457	0.00597563	
3458	0.00597563	
3459	0.00597562	
3460	0.00597562	
3461	0.00597562	
3462	0.00597562	
3463	0.00597293	
3464	0.00597045	
3465	0.00596841	
3466	0.00596685	
3467	0.00596547	
3468	0.00596427	
3469	0.00596318	
3470	0.00596214	
3471	0.00596124	
3472	0.00596042	
3473	0.00595968	
3474	0.00595883	
3475	0.00595735	
3476	0.00595735	
3477	0.00595735	
3478	0.00595735	
3479	0.00595734	
3480	0.00595734	
3481	0.00595734	
3482	0.00595733	
3483	0.00595733	
3484	0.00595733	
3485	0.00595733	
3486	0.00595733	
3487	0.00595474	
3488	0.00595255	
3489	0.0059508	
3490	0.0059493	
3491	0.0059481	
3492	0.00594701	
3493	0.00594601	
3494	0.00594513	
3495	0.00594434	
3496	0.0059436	
3497	0.00594294	
3498	0.00594211	
3499	0.00594096	
3500	0.00594096	
3501	0.00594096	
3502	0.00594095	
3503	0.00594095	
3504	0.00594095	
3505	0.00594094	
3506	0.00594094	
3507	0.00594094	
3508	0.00594094	
3509	0.00594094	
3510	0.00594093	
3511	0.00594093	
3512	0.00593888	
3513	0.00593713	
3514	0.00593556	
3515	0.0059342	
3516	0.00593294	
3517	0.00593186	
3518	0.00593092	
3519	0.00593006	
3520	0.0059293	
3521	0.00592856	
3522	0.00592774	
3523	0.00592666	
3524	0.00592666	
3525	0.00592665	
3526	0.00592665	
3527	0.00592665	
3528	0.00592665	
3529	0.00592664	
3530	0.00592664	
3531	0.00592664	
3532	0.00592663	
3533	0.00592663	
3534	0.00592663	
3535	0.0059246	
3536	0.00592294	
3537	0.00592155	
3538	0.00592027	
3539	0.00591916	
3540	0.0059181	
3541	0.00591717	
3542	0.00591634	
3543	0.00591557	
3544	0.00591487	
3545	0.00591421	
3546	0.00591353	
3547	0.00591258	
3548	0.00591258	
3549	0.00591258	
3550	0.00591258	
3551	0.00591257	
3552	0.00591257	
3553	0.00591257	
3554	0.00591256	
3555	0.00591256	
3556	0.00591256	
3557	0.00591256	
3558	0.00591256	
3559	0.0059109	
3560	0.00590951	
3561	0.00590837	
3562	0.00590737	
3563	0.00590657	
3564	0.00590583	
3565	0.00590515	
