1	 44
1	0.47	0.2556	0.01396	0.0018	290	16.867	40.37	4.09	2.235	0.0006	3.3	6e-07	784.4	0.001005	5.727	2.324e-05	0.009	0.009	0.022	0.25	0.4	220000	15	5	8.56e-09	1.8e-08	0.2	1.8e-08	0.2	1	5.34e-09	6.24e-05	0.1	0.95	0.55	800.0	7.84	1.49	0.316	8	0	0	0	
numSpecs    NumParam
SpeciesID	NPP / GPPRatio	gsmax(ms - 1)	gsmin(ms - 1)	CanopyQuantumEffic(gCJ - 1)	MaxForestAge(yrs)	OptimalTemp(C)	MaxTemp(C)	MinTemp(C)	FoliageAllocCoef_a	FoliageAllocCoef_b	StemAllocCoef_a	StemAllocCoef_b	gs_light_coeff	gs_vpd_coeff	lwp_low(-m)	lwp_high(-m)	WiltingPnt	SpecificLeafArea(m2g - 1)	SpecificRootArea(m2kg - 1)	Crown2StemDRat	TreeShapeParam	WoodDens(gCm - 2)	Fhdmax	Fhdmin	LeafTurnoverRate(s - 1)	MaxLeafTurnoverWaterStress(s - 1)	LeafTurnoverWaterStressParam	MaxLeafTurnoverTempStress(s - 1)	LeafTurnoverTempStressParam	ColdStressParam(degC)	RootTurnoverRate(s - 1)	MaxCanStorageParam(m)	albedo	emissivity	KBeers	CanopyWatEffic(gCm - 1)	sperry_d_par(m)	sperry_c_par(m)	Sperry_Kp(ms - 1)	gsr_param_a	is_grass	DeadGrassLeafTurnoverRate(s - 1)	DeadGrassLeafTurnoverTempAdjustment(degC)	
